5 0 78
6 9.6 78
7 3.7 78
8 8.7 78
53 31.9 78
54 39.1 78
55 29.5 78
56 27.1 78
109 60.8 78
110 71 78
111 64.8 78
112 69.3 78
169 95.3 78
170 100.4 78
171 91.8 78
172 88.2 78
229 124.9 78
230 134.2 78
231 126 78
232 129.8 78
293 158.2 78
294 160.3 78
295 151.7 78
296 150.4 78
357 184.7 78
358 198 78
359 187.7 78
360 190.1 78
425 219.8 78
426 220.5 78
427 215.3 78
428 209.7 78
605 310.5 78
606 321.2 78
607 316.3 78
608 321.5 78
677 343.3 78
678 352.4 78
679 344.5 78
680 343.1 78
743 385.2 78
745 373.2 78
746 383.2 78
747 378.1 78
748 383.5 78
810 415.7 78
811 400.7 78
813 403.6 78
814 413.4 78
815 406.2 78
816 400.7 78
877 433.2 78
878 445.1 78
879 439.5 78
880 442.1 78
937 484.5 78
938 468.9 78
940 472 78
941 467.6 78
942 472.9 78
943 466.1 78
944 461.8 78
997 496.7 78
999 501.3 78
1000 512.3 78
1001 499.1 78
1002 511.1 78
1003 505.1 78
1004 506.5 78
1061 558.4 78
1063 526.2 78
1064 528.2 78
1065 540.8 78
1067 537.4 78
1117 560.8 78
1118 564.8 78
1119 557.7 78
1120 555.2 78
5 0.4 76
6 10.7 76
7 3.4 76
8 7.7 76
53 33.2 76
54 39.5 76
55 30.6 76
56 27.6 76
109 62.9 76
110 72.9 76
111 65.2 76
112 69.5 76
169 92.6 76
170 97 76
171 90.3 76
172 87.2 76
225 132 76
226 138.8 76
227 140 76
229 123.2 76
230 134.6 76
231 125.5 76
232 129.1 76
293 153.9 76
294 160 76
295 153.1 76
296 149 76
357 188.2 76
358 196.9 76
359 190.6 76
360 189.9 76
425 220.3 76
426 219.4 76
427 214.3 76
428 207.7 76
605 312.6 76
606 319.9 76
607 316.6 76
608 320.3 76
609 389.2 76
674 346.9 76
675 352.1 76
677 343 76
678 352.3 76
679 343.7 76
680 338.3 76
745 373.3 76
746 384.3 76
747 378 76
748 382.4 76
813 405.4 76
814 413.2 76
815 405.7 76
816 402 76
877 437 76
878 446.8 76
879 443.2 76
880 444 76
937 473.5 76
938 474.1 76
941 465.5 76
942 475.3 76
943 470.2 76
944 463.4 76
996 503.5 76
998 513 76
999 500.7 76
1000 510.9 76
1001 500.6 76
1002 513.1 76
1003 502.7 76
1004 505.9 76
1066 541.8 76
1067 536.1 76
1068 536.7 76
1188 624.8 76
5 0.4 87
6 10.2 87
7 2.6 87
8 6.8 87
53 32.4 87
54 37.7 87
55 29.5 87
56 27.8 87
109 61.1 87
110 72.7 87
111 64 87
112 68.3 87
169 95.4 87
170 100.4 87
171 91.9 87
172 88.3 87
225 123.3 87
227 141.3 87
229 124 87
230 134.1 87
231 125.7 87
232 128.6 87
234 180.2 87
235 186.5 87
289 159.8 87
293 155.7 87
294 158.4 87
295 151.7 87
296 148.4 87
297 204.3 87
299 198.2 87
300 195.1 87
353 184.6 87
355 189.5 87
357 186.3 87
358 197 87
359 188.4 87
360 188.4 87
425 218.7 87
426 222.8 87
427 213.7 87
428 211.9 87
605 311.7 87
606 321.1 87
607 316.3 87
608 320.4 87
674 345.1 87
675 359.5 87
676 345.9 87
677 341.2 87
678 352.4 87
679 346 87
680 341.6 87
744 383.6 87
745 370.1 87
746 387.2 87
747 376.8 87
748 382 87
809 436.3 87
810 402.7 87
811 402.8 87
813 408.4 87
814 412.2 87
815 405.4 87
816 397.5 87
873 442.4 87
875 437.5 87
876 443 87
877 441.5 87
878 452.3 87
879 446.1 87
880 445.7 87
938 467.5 87
939 464.1 87
941 476.5 87
942 478 87
943 470.7 87
944 469.6 87
1001 568.5 87
1002 514.9 87
1065 549.2 87
1066 538.9 87
1068 532.7 87
1127 577.8 87
1128 569 87
1182 603.9 87
1183 604.3 87
5 0.6 87
6 10.1 87
7 2.5 87
8 8.1 87
53 33.5 87
54 38.3 87
55 30.3 87
56 27.4 87
109 62.3 87
110 72.9 87
111 65.6 87
112 68 87
169 95 87
170 99.1 87
171 90 87
172 88.2 87
229 124.4 87
230 136.2 87
231 127.6 87
232 130.4 87
293 160.5 87
294 162.3 87
295 153.8 87
296 150.1 87
357 187.6 87
358 197.6 87
359 190.3 87
360 191.8 87
425 219.1 87
426 220.2 87
427 213.9 87
428 211.9 87
605 309.6 87
606 320.5 87
607 315.2 87
608 318.8 87
677 342.6 87
678 348.7 87
679 342 87
680 337.4 87
743 388.7 87
744 397.1 87
745 372.4 87
746 384.2 87
747 377.4 87
748 382.8 87
813 406.3 87
814 415 87
815 404.4 87
816 400.9 87
877 436.5 87
878 447.2 87
879 439.4 87
880 443.4 87
938 476.9 87
939 476.2 87
941 468.4 87
942 472.9 87
943 464 87
944 462.3 87
1001 498.1 87
1002 506.9 87
1003 502.3 87
1004 505.7 87
1005 540.2 87
1006 526.1 87
1007 530.6 87
1008 534.5 87
1062 543.1 87
1065 527.9 87
1066 538.1 87
1067 528.6 87
1068 520.7 87
1069 561.9 87
1070 577.2 87
1071 556.6 87
1072 553.3 87
1125 558.8 87
1126 571.5 87
1127 561.9 87
1128 565.5 87
1129 583.9 87
1131 588.2 87
1181 593.6 87
1182 598.2 87
1183 590.8 87
1184 586.6 87
5 0.7 97
6 10.7 97
7 4.1 97
8 8.1 97
52 61 97
53 32 97
54 39.3 97
55 29.8 97
56 27.3 97
109 63.1 97
110 73.2 97
111 65.2 97
112 68.6 97
165 103.3 97
169 97.7 97
170 99.3 97
171 92.1 97
172 89.6 97
227 147 97
228 136.3 97
229 126.3 97
230 138.4 97
231 127.9 97
232 129.7 97
293 159.7 97
294 162.1 97
295 154.2 97
296 150.6 97
353 216.4 97
357 187.1 97
358 199 97
359 190.7 97
360 191.2 97
425 223.7 97
426 222.5 97
427 216.5 97
428 211.9 97
605 311.7 97
606 322.1 97
607 317.9 97
608 319.3 97
677 344 97
678 350.8 97
679 345.5 97
680 339.1 97
745 373.4 97
746 385.2 97
747 378.9 97
748 378.2 97
809 421.8 97
810 413.9 97
811 418 97
813 405.3 97
814 411.9 97
815 405.8 97
816 400.9 97
873 442.3 97
875 461 97
876 449.3 97
877 434.5 97
878 444.7 97
879 438.3 97
880 443 97
937 468.1 97
938 469.9 97
939 468 97
940 471.7 97
941 466.6 97
942 473.9 97
943 465.4 97
944 462.2 97
997 498.4 97
998 503.1 97
999 504.2 97
1000 507.7 97
1001 496.6 97
1002 507.6 97
1003 502.3 97
1004 505 97
1061 527 97
1063 523.1 97
1065 532.1 97
1066 538.8 97
1067 530.4 97
1068 534.8 97
1121 556.7 97
1122 555.3 97
1123 557.4 97
1124 565.1 97
1125 558.2 97
1126 569.1 97
1127 564.8 97
1128 619.9 97
1181 590.7 97
1182 601.4 97
1183 592 97
1184 589 97
5 0.9 100
6 9.9 100
7 3.4 100
8 8.1 100
53 30.9 100
54 36.7 100
55 28.6 100
56 26.1 100
109 62.1 100
110 72.8 100
111 64.2 100
112 66.3 100
113 115.3 100
114 106.2 100
115 110.6 100
116 118 100
169 95.7 100
170 97.8 100
171 90.3 100
172 87.6 100
229 123.7 100
230 133.5 100
231 125.4 100
232 126.1 100
236 175.9 100
293 158.3 100
294 161.4 100
295 153.4 100
296 148 100
357 187 100
358 197.1 100
359 188 100
360 191.7 100
422 207.1 100
423 214.6 100
424 215.5 100
425 219.7 100
426 223.1 100
427 214.1 100
428 211.4 100
605 310.4 100
606 321.1 100
607 318.5 100
608 323.8 100
673 351.5 100
674 343.8 100
675 337.1 100
676 342.4 100
677 343 100
678 351.5 100
679 345.9 100
680 346 100
741 367.3 100
742 377.1 100
743 375.5 100
744 379.6 100
745 373.8 100
746 384.8 100
747 381.1 100
748 383.2 100
810 403.1 100
811 402.2 100
812 398.5 100
813 404.3 100
814 411.4 100
815 404.2 100
816 404.4 100
873 435.6 100
875 432 100
876 443.9 100
877 433 100
878 443.2 100
879 439.8 100
880 442.9 100
937 474.8 100
938 469 100
939 468.6 100
941 470.3 100
942 472.1 100
943 466.1 100
944 459.7 100
998 507.2 100
1001 499.2 100
1002 511.2 100
1003 505.2 100
1004 501.4 100
1065 534.3 100
1066 535.9 100
1067 531.6 100
1068 522.9 100
1126 576.4 100
1127 572.4 100
1128 565.4 100
1177 591.4 100
1178 581.5 100
1179 586.7 100
1180 596.3 100
1182 597.4 100
1183 594.9 100
1184 589.3 100
5 0.6 36
6 10.3 36
7 3.3 36
8 7.2 36
53 32.8 36
54 38.6 36
55 29.4 36
56 27.4 36
109 63.2 36
110 72.9 36
111 64.6 36
112 68.8 36
169 95.8 36
170 100 36
171 91.2 36
172 88.2 36
229 123.6 36
230 135 36
231 127.1 36
232 129.6 36
293 157.5 36
294 160.8 36
295 153.3 36
296 149.9 36
357 188.3 36
358 197.8 36
359 188.9 36
360 191.7 36
425 222.1 36
426 222.4 36
427 214.5 36
428 210.5 36
605 311.2 36
606 321.4 36
607 316.7 36
608 324.3 36
5 0.3 73
6 10.6 73
7 2.6 73
8 7.1 73
53 33 73
54 39.1 73
55 30 73
56 27.5 73
109 62.2 73
110 73 73
111 65.1 73
112 69 73
169 95.5 73
170 100 73
171 91.4 73
172 88.6 73
229 125.1 73
230 135.2 73
231 126.7 73
232 130.4 73
293 158.3 73
294 161.3 73
295 153.5 73
296 148.9 73
357 187.7 73
358 197.2 73
359 188.3 73
360 190.6 73
425 219.4 73
426 221.3 73
427 213.8 73
428 208.7 73
601 307.7 73
602 361.1 73
603 312.8 73
604 320.7 73
605 312.9 73
606 324.8 73
607 318.9 73
608 323 73
609 356.3 73
610 352 73
611 350.6 73
612 354.8 73
673 346.2 73
674 342.3 73
675 339.4 73
676 345.8 73
677 345.5 73
678 355.1 73
679 348.4 73
680 344.1 73
741 372.2 73
742 375.1 73
743 375.5 73
745 376.7 73
746 387.2 73
747 382.9 73
748 386 73
813 406.1 73
938 462.7 73
939 460.3 73
940 454.9 73
997 494.5 73
999 495.1 73
1000 500.7 73
1061 529 73
1063 523.1 73
1064 524.5 73
1121 563.9 73
1122 559.3 73
1123 559.9 73
1124 568.3 73
5 0.1 55
6 10.7 55
7 2.4 55
8 8.9 55
53 33.3 55
54 39.6 55
55 30 55
56 27.5 55
57 235.2 55
59 231.5 55
60 223.9 55
109 62.4 55
110 71.9 55
111 64.9 55
112 68.9 55
169 95.9 55
170 98.7 55
171 92.1 55
172 88.8 55
226 155.3 55
229 123.7 55
230 132.9 55
231 125.7 55
232 129.5 55
289 184.6 55
292 189.2 55
293 156.9 55
294 160 55
295 153.2 55
296 148.4 55
353 182.9 55
355 209 55
357 187.6 55
358 199.2 55
359 189.4 55
360 191.6 55
425 220.6 55
426 221.4 55
427 214.6 55
428 210.1 55
605 310.3 55
606 320.7 55
607 315 55
608 322.7 55
677 342.3 55
678 358.3 55
679 346.2 55
680 343.6 55
745 379.9 55
746 392.6 55
747 384.3 55
748 382.7 55
813 407.2 55
814 422.1 55
815 414.4 55
5 0.4 85
6 10.6 85
7 3.7 85
8 8.3 85
53 33.5 85
54 39.9 85
55 30.6 85
56 28.5 85
109 61.4 85
110 71.3 85
111 64.1 85
112 66.8 85
167 97.7 85
169 92.2 85
170 98.8 85
171 91 85
172 87.7 85
225 125.8 85
227 126.6 85
228 134 85
229 124.9 85
230 134.8 85
231 127.1 85
232 126.2 85
293 156 85
294 159.8 85
295 154.2 85
296 150 85
357 184.5 85
358 195.6 85
359 189.7 85
360 190.4 85
425 217.9 85
426 222.6 85
427 215.4 85
428 211.9 85
605 309.4 85
606 322.7 85
607 318.5 85
608 319.6 85
674 343.7 85
677 342.3 85
678 354.2 85
679 348.2 85
680 353.6 85
745 370.5 85
746 381.7 85
747 387.2 85
748 387.6 85
813 435.3 85
814 419 85
815 411.2 85
816 444.6 85
873 438.9 85
874 431.9 85
875 447.1 85
876 455.2 85
877 440.5 85
878 445.1 85
879 438 85
880 459.9 85
884 522.5 85
938 472.2 85
939 466.1 85
941 478.4 85
942 509.4 85
943 476.5 85
997 495.1 85
999 496.5 85
1000 507.1 85
1063 523.7 85
1064 529.7 85
1117 577.6 85
1118 569.9 85
1119 574.4 85
1120 573.8 85
1125 602.2 85
1127 601.6 85
1130 584.5 85
1131 591.9 85
1132 592.9 85
1184 628 85
1185 645.6 85
1187 629.6 85
1188 615.6 85
5 0.7 79
6 9.2 79
7 3.6 79
8 8 79
53 32.6 79
54 39.4 79
55 29.7 79
56 27.1 79
109 60.8 79
110 70.8 79
111 64.8 79
112 68.2 79
169 95.6 79
170 101.9 79
171 91.6 79
172 89.5 79
229 125.1 79
230 134.2 79
231 125.7 79
232 128.1 79
293 158.5 79
294 161.2 79
295 152 79
296 150.8 79
357 183.5 79
358 197.5 79
359 187.2 79
360 190.4 79
425 220.5 79
426 220.5 79
427 215 79
428 210 79
605 310.3 79
606 321.7 79
607 316.4 79
608 320.4 79
677 342.4 79
678 352.9 79
679 343.7 79
680 341.9 79
743 383.6 79
745 372.6 79
746 383.5 79
747 378.1 79
748 381.8 79
810 413.7 79
811 399.4 79
813 403.4 79
814 413.5 79
815 406 79
816 402.4 79
873 469.5 79
877 432.5 79
878 443.6 79
879 439.4 79
880 443.6 79
937 487.4 79
938 468.9 79
939 475 79
940 478 79
941 467 79
942 473.3 79
943 465.8 79
944 461.8 79
997 496.2 79
999 502.7 79
1000 515.6 79
1001 498.9 79
1002 512.6 79
1003 506 79
1004 508 79
1063 523.4 79
1064 528.2 79
1065 547.4 79
1067 538.1 79
1117 558.7 79
1118 564.5 79
1119 557.3 79
1120 554.5 79
5 0.4 75
6 10.3 75
7 2.5 75
8 8.3 75
53 33.3 75
54 39.6 75
55 30.2 75
56 27.3 75
109 63 75
110 72.8 75
111 65.3 75
112 69.1 75
169 92.6 75
170 97.7 75
171 90.3 75
172 88 75
225 133.4 75
226 140.2 75
228 145.2 75
229 123.8 75
230 134.4 75
231 125.8 75
232 129.5 75
293 154.2 75
294 159.8 75
295 152.5 75
296 147.6 75
357 187.2 75
358 196.9 75
359 190.6 75
360 189.3 75
425 220.2 75
426 218.3 75
427 214.1 75
428 208 75
605 313.3 75
606 319.6 75
607 316.5 75
608 319.9 75
609 393.3 75
677 343.6 75
678 350.4 75
679 343.4 75
680 340 75
745 373.5 75
746 383.9 75
747 379.2 75
748 379.7 75
813 403.6 75
814 413.9 75
815 406.8 75
816 400.7 75
877 436.6 75
878 447.4 75
879 444.1 75
880 444 75
937 472.6 75
938 472.7 75
939 467.6 75
941 465.4 75
942 475.6 75
943 469.7 75
944 462.1 75
998 515.1 75
999 500.9 75
1000 509.6 75
1001 499.2 75
1002 512.3 75
1003 503.4 75
1004 505.8 75
1065 538.8 75
1066 542.2 75
1067 534.5 75
1068 536.8 75
1188 624.4 75
5 1 89
6 10 89
7 2.3 89
8 8.5 89
53 32.8 89
54 38.4 89
55 29.7 89
56 27.4 89
109 60.9 89
110 72.9 89
111 64 89
112 68.5 89
169 96 89
170 99.8 89
171 91.4 89
172 88.4 89
225 126.4 89
227 139.4 89
229 123.4 89
230 134.8 89
231 125.6 89
232 127.7 89
234 180.2 89
235 191.8 89
293 157.4 89
294 159.3 89
295 152.1 89
296 148 89
297 204 89
299 196.2 89
300 195.6 89
353 185.3 89
355 188.1 89
357 186 89
358 197.2 89
359 188.6 89
360 188.4 89
425 218.7 89
426 224.2 89
427 213.3 89
428 211.5 89
601 351 89
605 310 89
606 320.2 89
607 317.9 89
608 321.7 89
674 347.6 89
675 357.8 89
677 343.4 89
678 352.2 89
679 345.7 89
680 342.5 89
741 403.8 89
742 408 89
743 380 89
744 381.9 89
745 370.7 89
746 386.7 89
747 377.7 89
748 382.8 89
810 407.2 89
811 401.7 89
813 408.6 89
814 411.3 89
815 405.5 89
816 398.4 89
873 442.8 89
875 436.5 89
876 443.4 89
878 453 89
879 447.9 89
880 445.5 89
938 467.6 89
939 466.3 89
941 476.1 89
942 476.6 89
943 473.2 89
944 471.1 89
1002 518.5 89
1003 513.5 89
1004 510.7 89
1066 539.6 89
1067 538.3 89
1068 535 89
1126 589.7 89
1127 577.1 89
1128 578.2 89
1182 602.3 89
1183 604.5 89
5 0.5 84
6 10 84
7 3.5 84
8 8.1 84
53 33.1 84
54 39 84
55 29.7 84
56 26.9 84
109 62.2 84
110 72.6 84
111 65.7 84
112 67.7 84
169 95 84
170 100.1 84
171 90.3 84
172 88.3 84
229 123.7 84
230 135.9 84
231 127.6 84
232 130.3 84
293 157.4 84
294 162.8 84
295 153.7 84
296 150.6 84
357 188 84
358 198.9 84
359 190.3 84
360 192.2 84
425 220.5 84
426 220.9 84
427 214.5 84
428 212.2 84
605 309.6 84
606 321.2 84
607 315.4 84
608 321.8 84
677 342.5 84
678 348.6 84
679 341.2 84
680 339.5 84
743 396.6 84
745 373.1 84
746 384.3 84
747 376.8 84
748 383.1 84
813 406.3 84
814 413.8 84
815 403 84
816 401.4 84
877 436.1 84
878 445.6 84
879 439.4 84
880 444 84
938 478.2 84
939 478.7 84
941 466.9 84
942 473.8 84
943 463.9 84
944 462.5 84
1001 497.9 84
1002 508.2 84
1003 502.4 84
1004 506.5 84
1005 539.7 84
1006 527.7 84
1007 534 84
1008 532.9 84
1065 528.2 84
1066 538.4 84
1067 528.5 84
1068 521.2 84
1069 565.8 84
1071 558.6 84
1072 551.3 84
1125 557.8 84
1126 570.1 84
1127 562.2 84
1128 567.1 84
1129 584.5 84
1131 589.1 84
1181 592.4 84
1182 599.3 84
1183 592 84
1184 587.4 84
5 0.5 94
6 10.5 94
7 4.2 94
8 8 94
52 54.6 94
53 32.2 94
54 39 94
55 30 94
56 27.3 94
106 60.3 94
107 64 94
109 61.8 94
110 73 94
111 65.3 94
112 68.3 94
165 101.7 94
169 96.6 94
170 100.5 94
171 91.8 94
172 87.6 94
228 135.9 94
229 126.8 94
230 136.8 94
231 128 94
232 130.2 94
293 161 94
294 161.7 94
295 154 94
296 151.9 94
357 186.4 94
358 199.5 94
359 190.3 94
360 192.5 94
425 223.4 94
426 223.5 94
427 216.9 94
428 211.6 94
605 312.2 94
606 322.4 94
607 318.5 94
608 319.5 94
677 345.1 94
678 351.3 94
679 345 94
680 339.9 94
745 373.7 94
746 383.4 94
747 380.2 94
748 378.9 94
811 419.1 94
813 405.6 94
814 410.6 94
815 405.4 94
816 400 94
873 441.1 94
875 464.1 94
876 450.6 94
877 434.3 94
878 444.6 94
879 438.4 94
880 442.9 94
937 467.8 94
938 472.4 94
939 466.6 94
940 470.5 94
941 466 94
942 475.8 94
943 465.4 94
944 464 94
997 497.8 94
999 506.6 94
1001 497.2 94
1002 507.5 94
1003 503.9 94
1004 503.4 94
1061 526.9 94
1062 566.1 94
1063 523.9 94
1065 529 94
1066 539.4 94
1067 531.3 94
1068 535.5 94
1121 554.6 94
1122 554.5 94
1123 558 94
1124 563.6 94
1125 559 94
1126 566.7 94
1127 563.5 94
1128 616.9 94
1181 589.4 94
1182 603.2 94
1183 590.8 94
1184 590.3 94
5 0.8 109
6 9.9 109
7 3.3 109
8 7.5 109
50 44.4 109
51 106.5 109
53 30.6 109
54 37.4 109
55 28 109
56 26.3 109
109 62.8 109
110 72.4 109
111 63.9 109
112 67.5 109
114 104.2 109
115 112.8 109
116 116.1 109
166 125.9 109
168 118.5 109
169 95.9 109
170 98.2 109
171 90.4 109
172 87.8 109
174 156 109
229 124.1 109
230 133.5 109
231 125.5 109
232 126.3 109
236 179.1 109
293 160.3 109
294 161.5 109
295 152.8 109
296 148.2 109
357 186.3 109
358 196.1 109
359 187.9 109
360 191.9 109
422 207.9 109
423 214.4 109
424 216.5 109
425 219 109
426 222.2 109
427 214.5 109
428 212.9 109
429 278.8 109
601 362.8 109
605 311.4 109
606 321.4 109
607 317.9 109
608 321.2 109
673 350.8 109
674 346.9 109
675 337.1 109
676 341 109
677 342.1 109
678 351.5 109
679 345.1 109
680 347.1 109
741 369.6 109
742 374.1 109
743 376.1 109
744 379.4 109
745 375.9 109
746 383.7 109
747 379.1 109
748 384.7 109
809 430.1 109
810 402.6 109
811 403.1 109
812 400.1 109
813 403.9 109
814 412.4 109
815 404.3 109
816 404.2 109
873 431.7 109
875 435.7 109
876 444.1 109
877 434.2 109
878 444.5 109
879 438.5 109
880 442.9 109
937 476.9 109
938 471.1 109
939 467.2 109
941 470 109
942 471.3 109
943 466.1 109
944 463 109
998 507.4 109
999 510 109
1001 500.2 109
1002 510.7 109
1003 506.3 109
1004 502.2 109
1061 533.6 109
1065 530.5 109
1066 533.6 109
1067 532.3 109
1068 524.6 109
1126 575.9 109
1127 571.8 109
1128 564.9 109
1177 592.8 109
1178 584.8 109
1179 589.5 109
1180 597.7 109
1182 596.7 109
1183 595.7 109
1184 590.2 109
5 0.9 36
6 10.2 36
7 3.5 36
8 8.7 36
53 33.5 36
54 38.5 36
55 29.9 36
56 27.3 36
109 63.4 36
110 72.5 36
111 64.6 36
112 69.3 36
169 95.1 36
170 100.2 36
171 90.9 36
172 88.8 36
229 124.5 36
230 135.1 36
231 127.5 36
232 130.3 36
293 158.4 36
294 161.2 36
295 153.4 36
296 150.1 36
357 187.9 36
358 196.8 36
359 188.9 36
360 191.8 36
425 219.7 36
426 222.6 36
427 214.6 36
428 210.8 36
605 311 36
606 321.5 36
607 316.4 36
608 323 36
5 0.7 75
6 10.1 75
7 3 75
8 7.9 75
53 32.6 75
54 38.9 75
55 29.7 75
56 27.4 75
109 62.6 75
110 72.9 75
111 64.7 75
112 68.9 75
169 96.1 75
170 99.6 75
171 92.1 75
172 88.8 75
229 125.5 75
230 135.5 75
231 126.8 75
232 129.9 75
293 158.2 75
294 161.2 75
295 153.1 75
296 149.2 75
357 187.3 75
358 197.5 75
359 188.7 75
360 191.8 75
424 241.1 75
425 220 75
426 221 75
427 213.7 75
428 208.7 75
601 309.1 75
603 312.1 75
604 321.7 75
605 312.9 75
606 324 75
607 318.4 75
608 321.9 75
609 356.2 75
610 344.6 75
611 351.5 75
612 355.8 75
673 345.5 75
674 342.6 75
675 341.7 75
676 349 75
677 345.3 75
678 355.1 75
679 348.8 75
741 373.2 75
742 376 75
743 375.8 75
744 386.2 75
745 375.8 75
746 388.4 75
747 382.1 75
813 410.5 75
815 424.1 75
937 495 75
938 463.3 75
939 461.4 75
940 453.1 75
997 491.5 75
999 493.3 75
1000 501.1 75
1061 529.9 75
1063 521.9 75
1064 522.3 75
1121 562.6 75
1122 560.2 75
1123 561.7 75
1124 568.7 75
1177 596.8 75
5 0.3 52
6 10.1 52
7 2.1 52
8 8.8 52
53 32.9 52
54 39.4 52
55 30.3 52
56 27.6 52
57 236.2 52
59 230.8 52
60 224.4 52
109 62.2 52
110 72.1 52
111 65.3 52
112 70.1 52
169 95.4 52
170 98.7 52
171 91.8 52
172 88.9 52
229 124.3 52
230 133.2 52
231 125.6 52
232 129 52
293 157.9 52
294 159 52
295 152.7 52
296 148.1 52
353 183.2 52
355 210.1 52
357 187.3 52
358 197.3 52
359 189.9 52
360 192.3 52
425 220.3 52
426 222 52
427 214.6 52
428 210 52
605 309.6 52
606 321 52
607 315 52
608 323 52
677 344.4 52
678 353.9 52
679 346.4 52
680 343.3 52
745 383.5 52
746 392.6 52
747 385.2 52
748 382.7 52
813 409.1 52
814 421.1 52
815 410.8 52
5 0.4 85
6 10.8 85
7 3.9 85
8 8.3 85
53 33.1 85
54 40.1 85
55 31.1 85
56 27.7 85
109 61.2 85
110 71.2 85
111 63.9 85
112 66.9 85
167 99 85
169 94.1 85
170 98 85
171 90.8 85
172 88.3 85
225 127.4 85
227 127.4 85
228 132.9 85
229 124.5 85
230 133.9 85
231 127.5 85
232 127.7 85
293 157.6 85
294 158 85
295 154.2 85
296 149.1 85
357 186.4 85
358 196.4 85
359 188.8 85
360 191.1 85
425 216.4 85
426 223.6 85
427 215.9 85
428 211.5 85
605 310.2 85
606 320.6 85
607 318.1 85
608 318.1 85
674 345.2 85
677 341.7 85
678 355.5 85
679 346.3 85
680 353.3 85
745 370.7 85
746 380.6 85
747 388.8 85
748 386.6 85
813 439.3 85
814 420.3 85
815 409.7 85
816 444.5 85
873 438.3 85
875 444.3 85
876 454.2 85
877 440.1 85
878 446.6 85
879 439.2 85
880 463.3 85
884 521.6 85
938 474.1 85
939 466.1 85
940 459.4 85
941 477.8 85
942 504.5 85
943 477.8 85
997 497.5 85
999 499.7 85
1000 502.8 85
1062 558.4 85
1063 526 85
1064 530.3 85
1117 578.3 85
1118 571.4 85
1119 574.1 85
1120 569.1 85
1129 618.5 85
1130 582.9 85
1131 591.9 85
1132 592.4 85
1173 593.4 85
1184 628 85
1185 643.5 85
1187 628.1 85
5 0.7 80
6 9.5 80
7 3.3 80
8 8.4 80
53 32.1 80
54 38.3 80
55 29.4 80
56 27.3 80
109 61.4 80
110 71.1 80
111 64.7 80
112 68.9 80
169 94.4 80
170 101.4 80
171 91.7 80
172 88.8 80
229 124.7 80
230 134.4 80
231 126.1 80
232 129.6 80
293 157.2 80
294 161 80
295 152 80
296 150.5 80
357 184 80
358 197.2 80
359 187.4 80
360 190.5 80
425 220.2 80
426 220.4 80
427 215.8 80
428 209.5 80
605 310.4 80
606 321.6 80
607 317 80
608 320.6 80
677 342.1 80
678 352 80
679 344 80
680 341.9 80
743 384.7 80
745 372.2 80
746 382.9 80
747 378 80
748 384.4 80
810 415.5 80
811 398.8 80
813 402.8 80
814 412.4 80
815 407.2 80
816 402.5 80
873 469 80
877 433 80
878 444.8 80
879 440.2 80
880 444.1 80
937 485.1 80
938 468.9 80
939 474.6 80
940 476.5 80
941 467.3 80
942 473.5 80
943 465.6 80
944 461.2 80
997 497.4 80
998 498.4 80
999 502.6 80
1000 514.9 80
1001 498.5 80
1002 513 80
1003 506.8 80
1004 510 80
1063 524.1 80
1064 529.1 80
1065 545.1 80
1067 531.2 80
1117 560.8 80
1118 564.7 80
1119 558.4 80
1120 557.2 80
5 0.5 78
6 11 78
7 2.4 78
8 9.1 78
53 33.4 78
54 39.1 78
55 30.2 78
56 28 78
109 62.8 78
110 72.9 78
111 65.2 78
112 69.5 78
169 92.7 78
170 97.7 78
171 90.2 78
172 87.8 78
225 137.1 78
226 141.6 78
227 136.6 78
228 146.3 78
229 123.8 78
230 133.8 78
231 125.8 78
232 129.6 78
293 154.1 78
294 159.5 78
295 152.8 78
296 148.2 78
357 187.7 78
358 198.2 78
359 190.8 78
360 190 78
425 218.8 78
426 219 78
427 214.5 78
428 208 78
605 313.2 78
606 320.8 78
607 316.3 78
608 318.8 78
609 389.7 78
674 348.4 78
675 348.9 78
677 343.7 78
678 352 78
679 343.7 78
680 340.4 78
745 372.9 78
746 383.5 78
747 378 78
748 381.3 78
813 404.3 78
814 415.1 78
815 405.4 78
816 401.4 78
877 437.5 78
878 446.9 78
879 442.5 78
880 444.9 78
937 473.1 78
939 468 78
941 464.6 78
942 475.5 78
943 470.6 78
944 463.7 78
997 498.2 78
998 509.2 78
999 501.5 78
1000 508.1 78
1001 500.5 78
1002 514 78
1003 502.8 78
1004 506.4 78
1065 545.9 78
1066 540.6 78
1067 535 78
1068 533.3 78
1188 628.3 78
5 0.8 88
6 10.2 88
7 2.5 88
8 8.1 88
53 32.3 88
54 37.8 88
55 29.7 88
56 27.5 88
109 61.1 88
110 72.9 88
111 63.7 88
112 68.8 88
169 95.3 88
170 100 88
171 91.6 88
172 87.9 88
225 127 88
229 124 88
230 134.7 88
231 125.8 88
232 128.1 88
233 217.9 88
234 180.9 88
235 187.7 88
289 156.3 88
293 156.3 88
294 159.5 88
295 151.9 88
296 147.3 88
299 198.1 88
300 195.5 88
353 183.6 88
354 190.6 88
355 188.3 88
357 187 88
358 197.7 88
359 188.7 88
360 188.8 88
425 218.1 88
426 222.3 88
427 213.9 88
428 211.5 88
601 347.2 88
605 310.4 88
606 321.1 88
607 316.3 88
608 318.5 88
674 345.9 88
675 359.8 88
677 340.4 88
678 352.9 88
679 345.6 88
680 341.8 88
741 399.3 88
744 383 88
745 371.5 88
746 385.4 88
747 377.7 88
748 381.8 88
809 426.1 88
810 405 88
811 402 88
813 409.8 88
814 413.5 88
815 405.4 88
816 398.9 88
873 439.7 88
875 436.9 88
876 443.7 88
877 440.7 88
878 452.6 88
879 444.6 88
880 444.3 88
938 468.3 88
939 466.1 88
941 477.9 88
942 478.5 88
943 472.1 88
944 470 88
1002 516.1 88
1003 510.8 88
1066 540.3 88
1067 536.2 88
1068 532.3 88
1127 574.7 88
1128 574.7 88
1182 608.4 88
1183 604.8 88
5 0.4 84
6 10.1 84
7 3.6 84
8 8.3 84
53 33.4 84
54 39.3 84
55 29.7 84
56 27.9 84
109 61.8 84
110 72.6 84
111 65.5 84
112 67.9 84
169 94.4 84
170 99.4 84
171 90 84
172 88 84
229 122.3 84
230 136.3 84
231 128 84
232 131.3 84
293 157.9 84
294 162 84
295 154.1 84
296 149.9 84
357 188.6 84
358 198.2 84
359 189.9 84
360 190.7 84
425 220.5 84
426 220.3 84
427 215 84
428 210.5 84
605 309.1 84
606 320.9 84
607 315.3 84
608 321.4 84
677 342.5 84
678 349.6 84
679 341.7 84
680 338.2 84
745 372.6 84
746 383.6 84
747 377.5 84
748 384.2 84
813 406.4 84
814 415.4 84
815 403.7 84
816 400.4 84
877 436.4 84
878 447.1 84
879 439.6 84
880 444.4 84
938 475.9 84
939 477.9 84
941 467.8 84
942 474.3 84
943 464.6 84
944 461 84
1001 497.4 84
1002 508.1 84
1003 502.9 84
1004 506.6 84
1005 539.5 84
1007 532.4 84
1008 536.2 84
1065 528.6 84
1066 538.1 84
1067 529 84
1068 520.6 84
1069 563.7 84
1070 572.2 84
1071 556.9 84
1072 553.6 84
1125 558.6 84
1126 571 84
1127 561.6 84
1128 565.5 84
1129 582.4 84
1130 596.3 84
1131 586.6 84
1181 593.4 84
1182 597.7 84
1183 590.9 84
1184 586.1 84
5 0.6 96
6 10.5 96
7 4.2 96
8 7.3 96
53 32.4 96
54 38.4 96
55 30.3 96
56 27.2 96
109 61.4 96
110 73.4 96
111 65.3 96
112 68.8 96
165 104.8 96
169 96.9 96
170 100.4 96
171 92.2 96
172 88.5 96
228 136.4 96
229 126.2 96
230 137.4 96
231 127.7 96
232 131.3 96
293 160.6 96
294 161 96
295 154 96
296 151.5 96
353 217.6 96
357 187.2 96
358 199 96
359 190.4 96
360 192.4 96
362 232.8 96
425 222.7 96
426 222.9 96
427 216.1 96
428 212.7 96
605 310.9 96
606 322.9 96
607 318.4 96
608 318.9 96
677 344.6 96
678 350.3 96
679 344.4 96
680 341 96
745 373.7 96
746 383.5 96
747 379.7 96
748 381.2 96
809 424.1 96
810 413.3 96
811 420.3 96
813 405.7 96
814 411.9 96
815 406 96
816 400.7 96
873 443.2 96
875 462.5 96
876 450.6 96
877 434.4 96
878 444.9 96
879 438.2 96
880 441.9 96
937 467.8 96
938 469.2 96
939 469.5 96
940 472.9 96
941 465.8 96
942 474.6 96
943 465.6 96
944 464.8 96
997 498.1 96
998 507.7 96
999 508.7 96
1000 509.5 96
1001 497.2 96
1002 508.2 96
1003 502.6 96
1004 506.1 96
1061 526.6 96
1062 568.8 96
1063 524.8 96
1065 530.7 96
1066 540.3 96
1067 530 96
1068 533.9 96
1121 555.6 96
1123 557.9 96
1124 564.4 96
1125 559.2 96
1126 569.1 96
1127 564.8 96
1128 615.6 96
1181 589.6 96
1182 599.2 96
1183 592.3 96
1184 589.6 96
5 0.6 105
6 9.8 105
7 3.4 105
8 8.9 105
51 100.3 105
53 30.4 105
54 36.8 105
55 28.2 105
56 27.1 105
109 61.4 105
110 72.2 105
111 64.1 105
112 66.3 105
114 106.4 105
115 112.3 105
116 120 105
168 122 105
169 95.2 105
170 98.2 105
171 90.2 105
172 87.3 105
174 162.8 105
229 124 105
230 134.2 105
231 125.5 105
232 126 105
236 184.3 105
293 158.5 105
294 161.5 105
295 153.8 105
296 148.7 105
357 185.9 105
358 196.6 105
359 187.8 105
360 191.2 105
422 206.5 105
423 213.8 105
424 217.4 105
425 219 105
426 222.3 105
427 214.4 105
428 211.1 105
429 279.2 105
601 369.3 105
605 310.3 105
606 321.9 105
607 317.1 105
608 322.3 105
674 342 105
675 336.1 105
676 338.5 105
677 342.1 105
678 352.6 105
679 345.1 105
680 348 105
741 370 105
742 379.5 105
743 375.3 105
744 385 105
745 374.7 105
746 384.1 105
747 380 105
748 382.8 105
810 404.4 105
811 404.2 105
812 401.8 105
813 403.8 105
814 411.2 105
815 403.9 105
816 405.5 105
873 435 105
875 432.1 105
876 446.4 105
877 434.8 105
878 442.7 105
879 439.2 105
880 442.4 105
937 473.7 105
938 469.8 105
939 470.1 105
941 469 105
942 472 105
943 466.2 105
944 459.7 105
998 508.5 105
999 512.9 105
1001 499 105
1002 512.2 105
1003 504.8 105
1004 502.4 105
1061 537.4 105
1065 532.7 105
1066 533.7 105
1067 530.4 105
1068 523.2 105
1126 579 105
1127 570.9 105
1128 564.3 105
1177 587.1 105
1178 582.5 105
1179 588.5 105
1180 598.2 105
1182 598.2 105
1183 596.5 105
1184 587.4 105
5 0.6 36
6 10 36
7 3.6 36
8 9 36
53 33 36
54 38.7 36
55 29.9 36
56 28.1 36
109 63 36
110 73 36
111 64.4 36
112 68.8 36
169 95.5 36
170 100.2 36
171 91.3 36
172 88.6 36
229 124 36
230 134.7 36
231 126.9 36
232 130.4 36
293 158.2 36
294 161.5 36
295 153.4 36
296 150 36
357 186.8 36
358 198.1 36
359 189.2 36
360 191.2 36
425 221.5 36
426 222.8 36
427 214.6 36
428 210.6 36
605 310.6 36
606 321.3 36
607 316.8 36
608 323.8 36
5 0.2 73
6 10.2 73
7 2.9 73
8 8.4 73
53 33.2 73
54 38.8 73
55 30.5 73
56 28 73
109 62.7 73
110 73 73
111 65.2 73
112 68.7 73
169 95.9 73
170 99.6 73
171 91.9 73
172 88.9 73
229 125.5 73
230 135.3 73
231 127.2 73
232 130.7 73
293 158.3 73
294 161.1 73
295 153.5 73
296 149.1 73
357 187.5 73
358 197.7 73
359 188.1 73
360 191.1 73
424 245.8 73
425 220.6 73
426 221.3 73
427 213.9 73
428 208.9 73
601 310.2 73
603 315 73
604 320.7 73
605 314.8 73
606 324.3 73
607 318.2 73
608 323.9 73
610 346.4 73
611 351.8 73
612 355.1 73
673 345.7 73
674 342.2 73
675 339.9 73
676 346.4 73
677 344.7 73
678 352.8 73
679 347.5 73
741 372.5 73
743 376 73
744 377.9 73
745 375.2 73
746 387.9 73
747 382.5 73
813 410 73
815 423.7 73
938 461 73
939 459.3 73
940 452.6 73
997 493.7 73
998 492.7 73
999 493.3 73
1000 500.2 73
1061 528.2 73
1063 521.1 73
1064 523.5 73
1121 564.9 73
1122 558.5 73
1123 561 73
1124 566.5 73
1177 610.4 73
5 0.4 54
6 10.8 54
7 2.7 54
8 8.8 54
53 33.1 54
54 40.5 54
55 30.7 54
56 27.3 54
59 232.4 54
60 225.1 54
109 62.7 54
110 72.3 54
111 65.2 54
112 69.6 54
169 96.3 54
170 99.5 54
171 92 54
172 88.9 54
229 123.8 54
230 133 54
231 125 54
232 129.6 54
292 192.6 54
293 156.9 54
294 158 54
295 153.4 54
296 148.6 54
353 181.9 54
355 209.1 54
357 188.2 54
358 198.1 54
359 189.1 54
360 191.8 54
425 220 54
426 222.5 54
427 214.5 54
428 210.2 54
605 310 54
606 320.9 54
607 315.2 54
608 322 54
677 342 54
678 355.2 54
679 346.5 54
680 345.3 54
745 378.9 54
746 392.2 54
747 385.5 54
748 382.8 54
813 407.3 54
814 419.8 54
815 415.4 54
816 409.8 54
880 457 54
5 0.5 84
6 10.2 84
7 3.7 84
8 8.5 84
53 33.6 84
54 39.2 84
55 30.3 84
56 27.9 84
109 61.4 84
110 71.5 84
111 64.1 84
112 67.2 84
167 98.4 84
169 93.2 84
170 97.1 84
171 91 84
172 87.6 84
225 125.9 84
227 130 84
228 133.5 84
229 124.2 84
230 134 84
231 127.4 84
232 126.9 84
293 157.1 84
294 158.9 84
295 153.7 84
296 150.2 84
357 185.1 84
358 196.2 84
359 189.1 84
360 189.6 84
425 216.5 84
426 222.1 84
427 216.4 84
428 214.7 84
605 310.7 84
606 321.3 84
607 318.3 84
608 319.2 84
674 346.2 84
677 341.7 84
678 353.1 84
679 345.5 84
680 351.8 84
745 370.2 84
746 380.9 84
747 387.6 84
748 385.5 84
813 441.3 84
814 419 84
815 408 84
816 447.6 84
873 437.6 84
875 443.3 84
876 452.3 84
877 441.2 84
878 446.1 84
879 438.6 84
880 462.6 84
884 527.1 84
938 471.5 84
939 463.3 84
941 476.8 84
943 480 84
997 495.4 84
999 498.3 84
1000 505.1 84
1062 563.7 84
1063 529.1 84
1117 577.3 84
1118 573.5 84
1119 573.4 84
1120 573.2 84
1127 597.9 84
1129 622.1 84
1130 580.8 84
1131 589 84
1132 591.9 84
1173 590.2 84
1184 626.6 84
1185 642.5 84
1187 627.3 84
1188 615.4 84
5 0.4 81
6 9.4 81
7 3.4 81
8 8.3 81
53 32.6 81
54 38.8 81
55 29.4 81
56 27.3 81
109 61.2 81
110 71.1 81
111 65.1 81
112 68.5 81
169 94.8 81
170 100.4 81
171 92.2 81
172 89.2 81
229 124.7 81
230 134.4 81
231 125.8 81
232 129.3 81
293 157.6 81
294 160.7 81
295 151.6 81
296 150.4 81
357 184.3 81
358 198.6 81
359 187.7 81
360 190.7 81
425 222.1 81
426 220.4 81
427 214.8 81
428 209.8 81
605 310.3 81
606 321.6 81
607 316.2 81
608 322.2 81
677 342.5 81
678 353.9 81
679 343.5 81
680 341.9 81
741 444.1 81
743 382.8 81
745 373.2 81
746 383.2 81
747 378 81
748 383 81
811 398.8 81
813 404.1 81
814 412.2 81
815 406.3 81
816 402.1 81
873 469 81
877 432.9 81
878 444.3 81
879 439.7 81
880 442.9 81
937 487.1 81
938 469.4 81
939 475.7 81
940 473.1 81
941 467.1 81
942 471.6 81
943 465.7 81
944 461.6 81
997 495.9 81
998 498.9 81
999 501.2 81
1000 514.6 81
1001 499 81
1002 513.6 81
1003 507 81
1004 505.8 81
1061 555.3 81
1063 524.4 81
1064 526.2 81
1065 541.2 81
1067 542 81
1117 557.8 81
1118 563.8 81
1119 558.9 81
1120 555.5 81
5 0.3 75
6 10.8 75
7 3.4 75
8 8.1 75
53 33.4 75
54 39.1 75
55 29.9 75
56 27.6 75
109 62.8 75
110 72.5 75
111 64.9 75
112 68.7 75
169 92.6 75
170 97.4 75
171 90.6 75
172 87.8 75
225 133.5 75
226 140.2 75
227 137.6 75
228 144.4 75
229 124.2 75
230 133.8 75
231 125.8 75
232 129.1 75
293 155.2 75
294 159.2 75
295 152.9 75
296 147.5 75
357 187.4 75
358 198.2 75
359 190.9 75
360 190.6 75
425 221.1 75
426 219.2 75
427 214.5 75
428 208.4 75
605 311.4 75
606 319.4 75
607 317.3 75
608 320 75
609 392.2 75
674 345.6 75
675 355.3 75
677 342.9 75
678 350.6 75
679 343.8 75
680 339.9 75
745 373.9 75
746 383.9 75
747 378.8 75
748 381.4 75
813 403.8 75
814 412.4 75
815 406 75
816 402.1 75
877 436 75
878 447.8 75
879 444.8 75
880 443.7 75
937 474.4 75
939 467 75
941 465.1 75
942 475.8 75
943 470.4 75
944 463.4 75
999 503.7 75
1000 510.2 75
1001 499.5 75
1002 512.5 75
1003 505.5 75
1004 507.1 75
1066 541.1 75
1067 534.8 75
1068 538.2 75
1188 626.8 75
5 1 91
6 9.7 91
7 2.5 91
8 9.3 91
53 32.6 91
54 38.1 91
55 29.6 91
56 27.5 91
109 60.8 91
110 73.2 91
111 63.6 91
112 68 91
169 96 91
170 99.7 91
171 91.8 91
172 88.3 91
225 129 91
227 141.9 91
229 123.4 91
230 135.2 91
231 125.7 91
232 127.7 91
233 220 91
234 182.3 91
235 184.3 91
293 156.7 91
294 158.6 91
295 151.8 91
296 147.6 91
297 205.5 91
299 198.8 91
300 193.8 91
353 184.6 91
354 187.3 91
355 189 91
357 186.1 91
358 196.5 91
359 188.5 91
360 188.1 91
425 216.8 91
426 222.8 91
427 213.9 91
428 211.8 91
605 310.1 91
606 320.8 91
607 316.7 91
608 320.2 91
674 345.4 91
675 359.7 91
676 344.1 91
677 342.7 91
678 351 91
679 345 91
680 341.6 91
742 406.1 91
744 386.2 91
745 371.2 91
746 385.1 91
747 377.7 91
748 383.4 91
809 427.2 91
810 404.3 91
811 400.7 91
812 426.2 91
813 408.1 91
814 413 91
815 405.8 91
816 397.9 91
875 437.7 91
876 442.9 91
877 443.5 91
878 452.5 91
879 447.7 91
880 444.2 91
938 465.2 91
939 464.7 91
941 475.4 91
942 476.3 91
943 471.9 91
944 469.6 91
1001 568.9 91
1002 517.6 91
1066 540.9 91
1067 540.4 91
1068 531.8 91
1126 590.6 91
1127 574.2 91
1128 574.3 91
1182 602.5 91
1183 606.4 91
1184 602.7 91
5 0.8 85
6 10.4 85
7 3.2 85
8 7 85
53 33.2 85
54 39.2 85
55 30 85
56 26.8 85
109 61.7 85
110 72.9 85
111 65.5 85
112 67.8 85
169 95 85
170 99.9 85
171 89.7 85
172 87.7 85
229 123.8 85
230 135.4 85
231 128.1 85
232 129.7 85
293 159.1 85
294 162.3 85
295 154.6 85
296 149.8 85
357 188.2 85
358 199 85
359 189.9 85
360 192.2 85
425 219.1 85
426 220.8 85
427 214.6 85
428 211.3 85
605 309.7 85
606 321 85
607 315.4 85
608 321.6 85
677 344.7 85
678 349.3 85
679 341.9 85
680 337.9 85
741 392.1 85
745 373.3 85
746 383 85
747 376.9 85
748 382 85
813 405.7 85
814 414.6 85
815 402.8 85
816 401.1 85
877 436.1 85
878 445.2 85
879 440 85
880 442.7 85
938 477.5 85
939 479.4 85
941 467.4 85
942 473.8 85
943 464.3 85
944 461.9 85
1001 498.4 85
1002 508.8 85
1003 502.9 85
1004 506.8 85
1005 538.4 85
1006 523.9 85
1007 532.2 85
1008 536.2 85
1065 527.7 85
1066 538.1 85
1067 529 85
1068 520.5 85
1069 563.9 85
1071 555 85
1072 551.6 85
1125 556.8 85
1126 571.9 85
1127 562.2 85
1128 564.8 85
1129 581.3 85
1130 590.6 85
1131 586.5 85
1181 593 85
1182 598.4 85
1183 592.2 85
1184 586.7 85
5 0.4 91
6 10.3 91
7 4.1 91
8 8.3 91
53 31.9 91
54 39.5 91
55 29.9 91
56 27.7 91
106 60.7 91
107 64.7 91
109 62.3 91
110 73.2 91
111 65.2 91
112 69.2 91
169 97.1 91
170 99.8 91
171 92.1 91
172 87.9 91
229 128 91
230 136.9 91
231 127.6 91
232 131.9 91
293 159 91
294 161.6 91
295 154 91
296 151.4 91
357 187.9 91
358 199.4 91
359 190.4 91
360 193.2 91
425 220.9 91
426 223.1 91
427 216.5 91
428 212.2 91
605 311.9 91
606 322.6 91
607 318.3 91
608 319.8 91
677 344.8 91
678 349.9 91
679 345.7 91
680 338.6 91
745 374 91
746 384.5 91
747 379.7 91
748 381.1 91
809 429.9 91
810 416.3 91
811 419.9 91
813 404.9 91
814 412.2 91
815 405.7 91
816 401.7 91
873 443.4 91
875 463.3 91
876 449.3 91
877 434.1 91
878 444.8 91
879 438.3 91
880 443.2 91
937 469.2 91
938 472.1 91
939 466.5 91
940 470.5 91
941 466.7 91
942 474.5 91
943 465.8 91
944 464.6 91
997 501.9 91
999 504.8 91
1000 510.2 91
1001 497.2 91
1002 507.6 91
1003 502.9 91
1004 502.8 91
1061 526 91
1063 523.9 91
1065 529.5 91
1066 540.1 91
1067 529.4 91
1121 558 91
1122 553.8 91
1123 557.2 91
1124 566.1 91
1125 560.4 91
1126 571 91
1127 564.6 91
1181 590 91
1182 601.7 91
1183 591.1 91
1184 591 91
5 0.4 101
6 9.9 101
7 3.2 101
8 7.6 101
53 30.6 101
54 36.9 101
55 28.3 101
56 26.6 101
109 62.1 101
110 72.1 101
111 63.9 101
112 66.7 101
113 115.8 101
114 106.1 101
115 108.8 101
169 94.7 101
170 97.5 101
171 90.7 101
172 86.7 101
229 123 101
230 134.4 101
231 125.8 101
232 125.6 101
236 174.8 101
293 158.1 101
294 162.1 101
295 154.2 101
296 148.8 101
357 186.4 101
358 196.8 101
359 187.4 101
360 192.3 101
422 207.4 101
423 213.7 101
424 220.6 101
425 220 101
426 222.1 101
427 214.4 101
428 211.3 101
605 310.2 101
606 320.8 101
607 317.6 101
608 321.1 101
673 352.9 101
674 343.3 101
675 335.2 101
676 339.6 101
677 341.5 101
678 351.9 101
679 345.7 101
680 346.8 101
741 368.3 101
742 379.3 101
743 373.9 101
744 380.5 101
745 373.3 101
746 383.4 101
747 379.8 101
748 383.7 101
809 432.9 101
810 402.6 101
811 404.2 101
813 403.8 101
814 412 101
815 403.7 101
816 405 101
873 433.5 101
875 434.6 101
876 441.6 101
877 433.2 101
878 443.6 101
879 438.6 101
880 442 101
937 472.4 101
938 471.6 101
939 469.3 101
941 469.4 101
942 473.2 101
943 466.1 101
944 462.6 101
998 510.1 101
999 510.8 101
1001 497.9 101
1002 512.4 101
1003 504.9 101
1004 502.3 101
1061 536.9 101
1065 531.3 101
1066 536.4 101
1067 531.8 101
1068 523.3 101
1126 576.4 101
1127 569.2 101
1128 565.7 101
1177 594.2 101
1178 582.3 101
1179 586.6 101
1180 597.2 101
1182 596 101
1183 596.4 101
1184 589.1 101
5 0.6 36
6 10.7 36
7 3.2 36
8 9.1 36
53 33.5 36
54 39.1 36
55 29.7 36
56 27.4 36
109 63 36
110 73.1 36
111 64.7 36
112 69.2 36
169 95.6 36
170 99.8 36
171 91.1 36
172 88.8 36
229 123.8 36
230 135.4 36
231 127.3 36
232 130.4 36
293 157.5 36
294 161.9 36
295 153.4 36
296 149.8 36
357 186.9 36
358 197.6 36
359 189.5 36
360 191.4 36
425 221.5 36
426 222.6 36
427 214 36
428 210.3 36
605 310.7 36
606 322 36
607 316.8 36
608 323.2 36
5 0.5 72
6 10.2 72
7 3.4 72
8 8.7 72
53 33.1 72
54 39.2 72
55 29.8 72
56 27.2 72
109 62.2 72
110 72.8 72
111 65.3 72
112 69.7 72
169 95.9 72
170 100.5 72
171 91.6 72
172 88.8 72
229 125.3 72
230 135.3 72
231 126.7 72
232 130 72
293 158.2 72
294 161.9 72
295 153.8 72
296 149.6 72
357 187.8 72
358 197.8 72
359 188.2 72
360 190.9 72
424 243.2 72
425 219 72
426 221.2 72
427 214.2 72
428 208.7 72
601 308.7 72
603 313.6 72
604 323.4 72
605 314 72
606 324.6 72
607 317.6 72
608 324.1 72
609 357.9 72
610 347 72
611 349.9 72
612 354.9 72
673 344 72
674 344.7 72
675 341.7 72
676 350.4 72
677 344.9 72
678 355.2 72
679 346.2 72
741 371.7 72
742 372 72
743 374 72
744 380.9 72
745 376.6 72
746 385.9 72
747 383.2 72
813 408.4 72
938 462.4 72
939 459.5 72
940 454.1 72
997 494.7 72
999 492.7 72
1000 502.4 72
1061 530.1 72
1063 519.7 72
1064 524.4 72
1121 564.2 72
1123 562.5 72
1124 567.6 72
1177 603 72
5 0.7 52
6 10.5 52
7 2.6 52
8 8.9 52
53 33.6 52
54 39.4 52
55 30.1 52
56 28.4 52
59 230.5 52
60 226 52
109 61.9 52
110 72 52
111 65.4 52
112 69.5 52
169 96 52
170 99.6 52
171 91.8 52
172 89.2 52
229 124.3 52
230 133.3 52
231 125.4 52
232 129.1 52
293 156 52
294 157.9 52
295 153.1 52
296 149.1 52
353 181.6 52
355 211 52
357 188 52
358 197.6 52
359 189.2 52
360 192.8 52
425 219.6 52
426 222 52
427 214.5 52
428 210.2 52
605 311.3 52
606 320.8 52
607 315.1 52
608 322.3 52
677 344.3 52
678 355.2 52
679 345.6 52
680 343.9 52
745 381.9 52
746 394.1 52
747 385.9 52
748 381.5 52
813 405.2 52
814 422.8 52
815 411.1 52
880 458.2 52
5 0.3 81
6 10 81
7 3.5 81
8 9 81
53 32.8 81
54 39.6 81
55 31.5 81
56 28 81
109 61.6 81
110 71.3 81
111 63.8 81
112 66.7 81
167 97.2 81
169 94.1 81
170 98.2 81
171 90.7 81
172 87.7 81
225 126.1 81
227 129.1 81
229 125 81
230 134.8 81
231 127.1 81
232 127.4 81
293 157.3 81
294 160.7 81
295 153.9 81
296 149.3 81
357 186.3 81
358 196 81
359 188.9 81
360 189 81
425 217.1 81
426 221.6 81
427 215.9 81
428 211.8 81
605 309.9 81
606 321.7 81
607 318.1 81
608 320.5 81
677 341.6 81
678 354.9 81
679 346.9 81
680 349.8 81
745 370.5 81
746 382.8 81
747 387.7 81
748 387.3 81
813 436.3 81
814 421.5 81
815 408.7 81
816 446.8 81
873 436.7 81
874 436.5 81
875 442.3 81
876 455.6 81
877 441.8 81
878 445.3 81
879 439.3 81
880 460.3 81
884 523.4 81
938 472.8 81
939 465.7 81
943 478 81
997 494.8 81
999 498.4 81
1000 503.7 81
1063 532.7 81
1064 529.8 81
1117 577.9 81
1118 571.3 81
1119 572.5 81
1120 572.4 81
1125 597.2 81
1129 620.7 81
1130 581.8 81
1131 590.3 81
1132 592.4 81
1173 584.5 81
1184 630.2 81
1185 644.7 81
1188 612.7 81
5 0.6 79
6 9.2 79
7 3.1 79
8 8.3 79
53 32.5 79
54 39 79
55 29.5 79
56 27.6 79
109 61.2 79
110 71 79
111 64.7 79
112 69.4 79
169 94.1 79
170 100.1 79
171 91.4 79
172 88.2 79
229 124.9 79
230 134.2 79
231 126 79
232 129.2 79
293 157.6 79
294 160.6 79
295 151.7 79
296 150.2 79
357 184.3 79
358 197.7 79
359 187.7 79
360 190.6 79
425 220.4 79
426 220.8 79
427 215 79
428 209.6 79
605 310.4 79
606 320.8 79
607 316.6 79
608 320.7 79
677 342.5 79
678 354.8 79
679 344.9 79
680 345.7 79
741 439.7 79
743 387.1 79
745 371.4 79
746 382.7 79
747 377.8 79
748 382.6 79
811 401.2 79
813 403.9 79
814 413.3 79
815 405.9 79
816 401.7 79
873 465.5 79
877 432.5 79
878 443.3 79
879 439.9 79
880 443.4 79
937 486 79
938 468.7 79
939 476.3 79
941 468.3 79
942 472.5 79
943 465.3 79
944 462.1 79
997 499.1 79
998 496.2 79
999 504.7 79
1000 513.3 79
1001 498.6 79
1002 512.4 79
1003 506.7 79
1004 507.4 79
1061 557.4 79
1063 526.7 79
1064 526.4 79
1067 534.8 79
1117 558.9 79
1118 564.3 79
1119 556.7 79
1120 555.7 79
5 0.6 75
6 10.7 75
7 3.2 75
8 7.6 75
53 33.3 75
54 39.4 75
55 30.2 75
56 27.2 75
109 63.1 75
110 73.1 75
111 65 75
112 68.9 75
169 92.4 75
170 97.6 75
171 90.6 75
172 87.3 75
225 131.2 75
226 142.3 75
227 132.2 75
228 143.3 75
229 123.1 75
230 133.5 75
231 125.5 75
232 129.5 75
293 153.4 75
294 158.7 75
295 153.4 75
296 148.2 75
357 187.6 75
358 197.7 75
359 190.8 75
360 191 75
425 221.1 75
426 219.4 75
427 214.9 75
428 208.1 75
605 312.5 75
606 319.9 75
607 317 75
608 320.6 75
609 386.7 75
675 351.4 75
677 343.1 75
678 350.3 75
679 344.4 75
680 340.1 75
745 372.9 75
746 385.9 75
747 378 75
748 381 75
813 402.8 75
814 414.1 75
815 405.6 75
816 402.1 75
877 437.3 75
878 448.1 75
879 444.1 75
880 444.3 75
937 471.3 75
938 468.5 75
940 463.8 75
941 466.3 75
942 475.9 75
943 470.1 75
944 462.6 75
999 502.1 75
1000 510.2 75
1001 499.8 75
1002 514.1 75
1003 504.3 75
1004 506.9 75
1066 543.5 75
1067 534.6 75
1068 535.8 75
1188 627.1 75
5 0.4 91
6 10.5 91
7 2.1 91
8 8.5 91
53 32.7 91
54 38.5 91
55 29.7 91
56 27.4 91
109 60.9 91
110 73.5 91
111 63.7 91
112 69.3 91
169 95.3 91
170 100 91
171 91.4 91
172 88.5 91
177 215.2 91
225 125.5 91
227 139.1 91
229 123.4 91
230 134.9 91
231 125.7 91
232 128 91
233 218.7 91
234 180.9 91
235 183.8 91
293 156.3 91
294 158.4 91
295 151.4 91
296 148.5 91
297 203.9 91
299 196.5 91
300 195.2 91
353 185.2 91
355 188.5 91
357 186.2 91
358 198.2 91
359 188.4 91
360 188.6 91
425 219.1 91
426 223 91
427 213.9 91
428 212.7 91
605 311.2 91
606 320.7 91
607 318.2 91
608 320.2 91
674 343.8 91
675 361.3 91
676 346.7 91
677 341.8 91
678 352.6 91
679 346.4 91
680 340.8 91
741 401.3 91
742 403.8 91
743 382.7 91
744 384.4 91
745 371.5 91
746 387.6 91
747 376.2 91
748 382.2 91
810 406 91
811 401.6 91
812 425.4 91
813 408.4 91
814 412.2 91
815 406.8 91
816 398.9 91
873 442.4 91
875 437.1 91
876 444.4 91
877 440.4 91
878 451.8 91
879 446.7 91
880 446.5 91
938 467.1 91
939 464.7 91
941 473.8 91
942 476.8 91
943 471.4 91
944 470.3 91
1002 516.5 91
1004 507.8 91
1066 542.9 91
1067 539.5 91
1068 533.3 91
1127 575.1 91
1128 572.7 91
1182 606 91
1183 605.3 91
5 0.4 87
6 10.2 87
7 3.1 87
8 8.6 87
53 33.3 87
54 38.2 87
55 29.7 87
56 26.8 87
109 61.8 87
110 72.8 87
111 65.4 87
112 67.9 87
169 95.4 87
170 99.3 87
171 90.2 87
172 88.2 87
229 123.5 87
230 136.3 87
231 127.9 87
232 130.1 87
293 158.3 87
294 162.5 87
295 153.8 87
296 150.2 87
357 187.4 87
358 199.1 87
359 190.2 87
360 192.3 87
425 219.9 87
426 220.9 87
427 214.8 87
428 211.5 87
605 310 87
606 320.9 87
607 315 87
608 321.7 87
677 342.3 87
678 349 87
679 342.8 87
680 340.1 87
741 389.9 87
744 392.6 87
745 372.6 87
746 384 87
747 376.8 87
748 382.4 87
813 406.3 87
814 414.9 87
815 404.2 87
816 402 87
877 436.6 87
878 445.9 87
879 438.6 87
880 442.4 87
938 477.3 87
939 476.4 87
941 467.4 87
942 474 87
943 464.1 87
944 460.9 87
1001 498.4 87
1002 507.8 87
1003 501.9 87
1004 505.7 87
1005 541.7 87
1006 526.1 87
1007 532.2 87
1008 532.6 87
1062 548.1 87
1065 528.4 87
1066 535.2 87
1067 528.7 87
1068 520.4 87
1069 564.4 87
1071 556.1 87
1072 551.9 87
1125 558.3 87
1126 570.9 87
1127 562.1 87
1128 564.5 87
1129 585.7 87
1130 597.8 87
1131 585.7 87
1181 594.2 87
1182 598.1 87
1183 593.1 87
1184 586.8 87
5 0.2 94
6 10.7 94
7 4.2 94
8 7.2 94
53 32.3 94
54 38.5 94
55 30.7 94
56 27.7 94
107 64.1 94
109 61.7 94
110 72.9 94
111 65.4 94
112 68.4 94
165 103.4 94
169 98 94
170 99.7 94
171 91.7 94
172 89.9 94
226 170.3 94
228 136.2 94
229 126.5 94
230 137.6 94
231 127.6 94
232 132.1 94
293 161.2 94
294 161.1 94
295 154.3 94
296 151 94
353 206.2 94
357 187.4 94
358 197.7 94
359 190.8 94
360 193.5 94
425 221.3 94
426 222.7 94
427 216.1 94
428 212.3 94
605 312 94
606 323.5 94
607 318 94
608 319.2 94
677 344.6 94
678 350 94
679 344.8 94
680 339.8 94
745 373.6 94
746 384.1 94
747 379.5 94
748 380 94
810 415.6 94
811 417 94
813 405.6 94
814 411.9 94
815 405.6 94
816 401.5 94
873 444.6 94
875 462.8 94
876 450.1 94
877 434 94
878 444.9 94
879 438 94
880 442.2 94
937 469.1 94
938 471.5 94
939 467.2 94
940 471.2 94
941 465.8 94
942 476 94
943 465.5 94
944 464 94
997 500.3 94
999 506 94
1001 497.1 94
1002 506.1 94
1003 502.6 94
1004 504.8 94
1061 526.5 94
1063 523 94
1065 530.8 94
1066 539.8 94
1067 530.1 94
1068 535.5 94
1121 558.4 94
1122 555.7 94
1123 557.2 94
1124 563.8 94
1125 558.5 94
1126 570.3 94
1127 564.6 94
1128 610.2 94
1181 591 94
1182 600.5 94
1183 591.1 94
1184 592.4 94
5 0.5 101
6 9.6 101
7 3.2 101
8 7.9 101
53 30.7 101
54 36.9 101
55 28.4 101
56 26.5 101
109 62.2 101
110 72.5 101
111 63.8 101
112 66.8 101
114 107.1 101
115 111.4 101
116 114.7 101
169 96.1 101
170 98.1 101
171 90 101
172 87.3 101
225 134.1 101
229 123.3 101
230 133.6 101
231 125.6 101
232 125.5 101
293 157.8 101
294 160.6 101
295 154.2 101
296 148.6 101
357 185.6 101
358 196.5 101
359 187.6 101
360 192.5 101
422 208.2 101
423 215.1 101
424 219.1 101
425 220.5 101
426 222.6 101
427 214.5 101
428 210.7 101
429 279.4 101
605 310.8 101
606 322.8 101
607 319.3 101
608 321.7 101
674 346.5 101
675 335.6 101
676 340.5 101
677 342.9 101
678 351.1 101
679 344.9 101
680 348 101
741 368.2 101
742 377.8 101
743 373.8 101
744 382.2 101
745 374.9 101
746 383.5 101
747 379.5 101
748 382.4 101
810 402.8 101
811 406.9 101
812 402.3 101
813 404.2 101
814 412 101
815 403.8 101
816 405.8 101
873 433.9 101
875 432.2 101
876 447.4 101
877 435.4 101
878 443.8 101
879 438.2 101
880 439.9 101
937 473.3 101
938 471.4 101
939 467.6 101
941 468.3 101
942 471.9 101
943 466.9 101
944 460.8 101
998 508.5 101
999 512 101
1001 499.3 101
1002 509.1 101
1003 505.9 101
1004 501.8 101
1061 535.1 101
1065 533.9 101
1066 534.5 101
1067 531 101
1068 523.3 101
1126 575.8 101
1127 571.7 101
1128 563.3 101
1177 592.3 101
1178 583.7 101
1179 588.3 101
1180 596.5 101
1182 598.6 101
1183 597.7 101
1184 590.1 101
5 0.1 36
6 10.2 36
7 3.5 36
8 8.6 36
53 32.7 36
54 38.9 36
55 29.7 36
56 28.1 36
109 62.8 36
110 72.8 36
111 65 36
112 69.4 36
169 95.1 36
170 100.3 36
171 90.8 36
172 88.3 36
229 123.7 36
230 135.3 36
231 127.3 36
232 129.7 36
293 158.7 36
294 161.2 36
295 153.6 36
296 149.9 36
357 187.1 36
358 197 36
359 189.1 36
360 191.2 36
425 220 36
426 222.8 36
427 214.5 36
428 210.7 36
605 310.7 36
606 321.7 36
607 316.5 36
608 322.7 36
5 0.9 74
6 10.2 74
7 3.1 74
8 8.4 74
53 32.4 74
54 38.5 74
55 29.5 74
56 28.1 74
109 62.6 74
110 72.5 74
111 64.8 74
112 68.7 74
169 95.6 74
170 99.7 74
171 91.1 74
172 89.1 74
229 124.8 74
230 135 74
231 126.9 74
232 129.9 74
293 158.1 74
294 161.4 74
295 153.5 74
296 149.8 74
357 188.3 74
358 198.2 74
359 187.9 74
360 191 74
424 244.9 74
425 219 74
426 221 74
427 213.7 74
428 208.5 74
601 305.5 74
603 313.1 74
604 323.8 74
605 312.1 74
606 326.1 74
607 318.9 74
608 323.3 74
610 347.1 74
611 353.1 74
612 355.1 74
673 345.3 74
674 343.2 74
675 341.5 74
676 344.4 74
677 345 74
678 353.5 74
679 346.3 74
680 346 74
741 373.5 74
743 374.4 74
744 383.8 74
745 375.7 74
746 387.2 74
747 382.2 74
748 393.3 74
813 407.7 74
815 426.7 74
938 462.1 74
939 459.4 74
940 452.4 74
997 492.3 74
998 493.4 74
999 492.8 74
1000 502.3 74
1061 529.1 74
1063 522.5 74
1064 523 74
1121 561.8 74
1123 561.7 74
1124 568.4 74
1177 600 74
5 0.1 55
6 10.3 55
7 2.7 55
8 7.8 55
53 33.6 55
54 39.7 55
55 29.9 55
56 27.8 55
57 236.6 55
59 229.4 55
60 224.5 55
109 62.9 55
110 72 55
111 65.4 55
112 68.8 55
169 95.9 55
170 99.6 55
171 91.9 55
172 89.3 55
226 157.8 55
229 124 55
230 133.3 55
231 125.6 55
232 129.1 55
289 185.9 55
292 188.9 55
293 157.2 55
294 158.7 55
295 153.2 55
296 147.9 55
353 180.8 55
355 208.7 55
357 186.7 55
358 197.8 55
359 189.2 55
360 191.4 55
425 219.2 55
426 223.4 55
427 214.4 55
428 209.9 55
605 310.3 55
606 320.8 55
607 315.6 55
608 322.2 55
677 342.9 55
678 354 55
679 344.9 55
680 341.8 55
745 380.7 55
746 391.8 55
747 383.1 55
748 381.3 55
813 406.2 55
814 421.2 55
815 412.3 55
5 0.9 88
6 10.1 88
7 3.7 88
8 9.8 88
53 33.1 88
54 39 88
55 31.3 88
56 28 88
109 61 88
110 71.2 88
111 63.6 88
112 66.6 88
167 98.7 88
169 93.3 88
170 97.7 88
171 90.7 88
172 87.4 88
225 127.8 88
227 128.5 88
228 135.8 88
229 125.3 88
230 134.3 88
231 127.4 88
232 127.7 88
293 157.3 88
294 158.7 88
295 154.1 88
296 149.4 88
357 185 88
358 194.6 88
359 188.4 88
360 191.2 88
425 217.5 88
426 222.8 88
427 215.3 88
428 211.1 88
605 311.7 88
606 321.4 88
607 316.3 88
608 317.4 88
677 340.3 88
678 351.9 88
679 346.5 88
680 350.4 88
745 370.7 88
746 381.5 88
747 388.6 88
748 387.9 88
752 480.1 88
813 441.8 88
814 419.5 88
815 412.5 88
816 449.2 88
873 438.7 88
874 432.6 88
875 447.1 88
876 452 88
877 441.4 88
878 443.6 88
879 438.1 88
880 463.5 88
884 520.9 88
938 469.8 88
939 464.9 88
940 462.5 88
941 479.1 88
943 478.3 88
997 493.9 88
998 538.7 88
999 497 88
1000 505.8 88
1062 552.6 88
1063 529 88
1064 526 88
1117 572.3 88
1118 571.4 88
1119 574.3 88
1120 570.9 88
1125 597 88
1127 603.5 88
1129 622.2 88
1130 580.7 88
1131 590.7 88
1132 592.2 88
1173 591.4 88
1184 625.5 88
1187 628.7 88
1188 615.5 88
5 0.6 79
6 9.5 79
7 3.7 79
8 7.7 79
53 32.7 79
54 38.7 79
55 29.5 79
56 27 79
109 61.1 79
110 70.8 79
111 64.8 79
112 69.2 79
169 94.6 79
170 100.7 79
171 91.6 79
172 88.2 79
229 125.4 79
230 134.3 79
231 126.3 79
232 128.8 79
293 158.2 79
294 160.6 79
295 151.8 79
296 151 79
357 184.3 79
358 198.1 79
359 188 79
360 190.3 79
425 220.5 79
426 220.3 79
427 215.3 79
428 210.2 79
605 309.9 79
606 321.7 79
607 317 79
608 321.1 79
677 342.5 79
678 352.2 79
679 345.1 79
680 343.3 79
741 438.5 79
745 372 79
746 383 79
747 377.7 79
748 382.9 79
811 400.6 79
813 404 79
814 414.4 79
815 406.2 79
816 401.1 79
873 464.6 79
877 432.8 79
878 446.1 79
879 440 79
880 442.2 79
937 485.3 79
938 469.2 79
939 475.2 79
940 473 79
941 468 79
942 472.6 79
943 465.6 79
944 463.6 79
997 499 79
999 501.8 79
1000 514.2 79
1001 499.9 79
1002 512.9 79
1003 504.4 79
1004 504.6 79
1061 553.4 79
1063 527.1 79
1064 528 79
1065 544.2 79
1067 537.1 79
1117 560.3 79
1118 563.9 79
1119 558.7 79
1120 554.7 79
5 0.5 75
6 10.2 75
7 2.7 75
8 8.3 75
53 33.3 75
54 38.6 75
55 30.7 75
56 27.5 75
109 63 75
110 72.9 75
111 64.6 75
112 69.1 75
169 92.6 75
170 97.5 75
171 90.2 75
172 88 75
225 131.1 75
226 139.6 75
227 137.2 75
228 144.9 75
229 124.1 75
230 134.1 75
231 125.5 75
232 128.8 75
293 152.9 75
294 159 75
295 152.8 75
296 148.3 75
357 189 75
358 196.6 75
359 190.3 75
360 190 75
425 220 75
426 220.1 75
427 214.4 75
428 207.8 75
605 311.7 75
606 320.4 75
607 317.1 75
608 319.2 75
677 343.6 75
678 350.4 75
679 344.3 75
680 338.3 75
745 373.8 75
746 383.4 75
747 378.2 75
748 381.4 75
813 404.4 75
814 413.8 75
815 405.9 75
816 400.5 75
877 436.8 75
878 447.7 75
879 443.8 75
880 442.5 75
937 474.8 75
938 470.7 75
939 466.3 75
940 465.8 75
941 465.3 75
942 474.6 75
943 470.3 75
944 463.6 75
999 503.5 75
1000 510.1 75
1001 500.4 75
1002 512.5 75
1003 505.5 75
1004 506.2 75
1065 540.9 75
1066 543.6 75
1067 534.7 75
1068 536.5 75
1188 630.8 75
5 0.6 93
6 10.1 93
7 2.1 93
8 8.3 93
53 32.4 93
54 38.3 93
55 29.4 93
56 27.6 93
109 60.8 93
110 73.1 93
111 64.1 93
112 68.8 93
169 95.4 93
170 100.1 93
171 91.7 93
172 87.8 93
225 127 93
227 137.7 93
229 123.5 93
230 135.3 93
231 125.9 93
232 128.1 93
233 215.1 93
234 183 93
235 186.8 93
293 155.8 93
294 158.9 93
295 151.8 93
296 147.9 93
299 198.1 93
300 194.1 93
353 184 93
355 187.9 93
357 186.4 93
358 197.2 93
359 188.9 93
360 188.6 93
425 218.1 93
426 224.4 93
427 214 93
428 213.4 93
601 348.9 93
605 310.7 93
606 320.8 93
607 317.2 93
608 320.7 93
674 344.3 93
675 361.1 93
676 344.5 93
677 342.3 93
678 351.7 93
679 344.1 93
680 341 93
742 404.9 93
743 379 93
744 387.1 93
745 371.4 93
746 386.8 93
747 376.2 93
748 383.2 93
810 405.3 93
811 400.8 93
812 423 93
813 409.5 93
814 411.9 93
815 405.2 93
816 397.7 93
873 440.3 93
875 436 93
876 443.5 93
877 440.9 93
878 452.1 93
879 445 93
880 444.3 93
938 466.9 93
939 462.8 93
941 475.8 93
942 478.5 93
943 473.1 93
944 470.2 93
1001 572.1 93
1002 514.1 93
1003 508.6 93
1004 515.3 93
1066 541.4 93
1067 539.2 93
1068 531.6 93
1126 587.8 93
1127 575.4 93
1128 571.1 93
1182 608.1 93
1183 604.7 93
1184 600 93
5 0.3 84
6 10.2 84
7 2.7 84
8 8.5 84
53 33.3 84
54 39.2 84
55 29.5 84
56 27.6 84
109 61.7 84
110 72.5 84
111 64.9 84
112 67 84
169 95 84
170 98.6 84
171 90 84
172 88 84
229 123.3 84
230 135.8 84
231 128.3 84
232 130.3 84
293 159.5 84
294 162.6 84
295 154.2 84
296 149.8 84
357 187.8 84
358 199 84
359 190.3 84
360 191.9 84
425 219.2 84
426 220.9 84
427 214.2 84
428 212 84
605 309.4 84
606 320.6 84
607 315.1 84
608 320.1 84
677 342.2 84
678 349.2 84
679 342.1 84
680 339.9 84
744 394.8 84
745 373 84
746 383.2 84
747 377.6 84
748 383.7 84
813 406.9 84
814 414.2 84
815 404.1 84
816 403.3 84
877 436.7 84
878 446.9 84
879 439.8 84
880 444.7 84
938 474.9 84
939 479.8 84
941 468.2 84
942 474.2 84
943 465.1 84
944 459.8 84
1001 497.8 84
1002 508.3 84
1003 502.7 84
1004 507.6 84
1005 538 84
1006 527 84
1007 531.1 84
1008 532.1 84
1065 528.3 84
1066 537.4 84
1067 529 84
1068 519.8 84
1069 564.3 84
1071 555.8 84
1072 551 84
1125 558.8 84
1126 570.6 84
1127 561.4 84
1128 564.3 84
1129 585.9 84
1131 588.4 84
1181 592.6 84
1182 597.2 84
1183 590.8 84
1184 587.8 84
5 0.7 95
6 10.5 95
7 4.4 95
8 8 95
53 32.3 95
54 40 95
55 30 95
56 27 95
106 62.2 95
109 61.5 95
110 73.4 95
111 65.1 95
112 68.5 95
165 106.3 95
169 96.7 95
170 100.1 95
171 92.1 95
172 88.7 95
226 172.1 95
227 138.4 95
228 139.4 95
229 127.3 95
230 137.4 95
231 127.7 95
232 132 95
293 160.2 95
294 162.6 95
295 153.9 95
296 151.2 95
357 186.3 95
358 197.4 95
359 190.7 95
360 192.8 95
362 226.6 95
425 222.6 95
426 223.1 95
427 216.7 95
428 212.1 95
605 312.6 95
606 323.4 95
607 317.7 95
608 319.8 95
677 343.3 95
678 348.3 95
679 344.8 95
680 339.8 95
745 373.2 95
746 384.2 95
747 379.4 95
748 379.9 95
810 415.5 95
811 416 95
813 405.8 95
814 413.5 95
815 406 95
816 401.3 95
873 442.8 95
875 460.7 95
876 451.5 95
877 433.9 95
878 444.9 95
879 438.6 95
880 443.3 95
937 467.6 95
938 470 95
939 468.5 95
940 476.4 95
941 466.7 95
942 475.5 95
943 466.8 95
944 463.5 95
997 501.2 95
999 504.9 95
1001 497.9 95
1002 507.3 95
1003 503 95
1004 503.8 95
1061 526 95
1062 569.4 95
1063 524.6 95
1065 528.8 95
1066 539.9 95
1067 531.3 95
1068 537.1 95
1121 555.9 95
1122 555.3 95
1123 557.1 95
1124 563.1 95
1125 559.3 95
1126 569.7 95
1127 564.1 95
1181 592.6 95
1182 601.6 95
1183 592.8 95
1184 591 95
5 0.5 105
6 9.7 105
7 3.3 105
8 7.3 105
50 48.3 105
53 30.7 105
54 37.2 105
55 28.5 105
56 26.2 105
109 62.6 105
110 72.1 105
111 64.3 105
112 66.5 105
113 119.5 105
114 106.6 105
115 113.7 105
116 115.1 105
168 116.7 105
169 95.6 105
170 97.7 105
171 90.3 105
172 87.3 105
229 124.3 105
230 133.3 105
231 125.8 105
232 125.9 105
236 176.1 105
293 157.8 105
294 159.6 105
295 153.5 105
296 148.9 105
357 186.5 105
358 198.8 105
359 187.4 105
360 190.5 105
422 208.3 105
423 213.5 105
424 221.3 105
425 220.5 105
426 222.9 105
427 214 105
428 211.2 105
429 279.9 105
605 311.1 105
606 321.4 105
607 317.6 105
608 322 105
673 350 105
674 348.5 105
675 336.1 105
676 341.9 105
677 342.9 105
678 350.6 105
679 344.7 105
680 344.7 105
741 368.9 105
742 375.5 105
743 376.1 105
744 382.8 105
745 372.6 105
746 384.1 105
747 379.2 105
748 383.1 105
809 436.4 105
810 406 105
811 402.2 105
812 395.1 105
813 403.9 105
814 411.6 105
815 403.7 105
816 402.9 105
873 431.4 105
875 433.8 105
876 439.8 105
877 433.7 105
878 443.8 105
879 438.8 105
880 441.4 105
937 475.8 105
938 469.2 105
939 468.5 105
941 469.9 105
942 471.8 105
943 466.4 105
944 460.4 105
998 509.9 105
1001 496.6 105
1002 511.2 105
1003 506.3 105
1004 500.8 105
1061 538.2 105
1065 532.8 105
1066 535.4 105
1067 530.1 105
1068 524 105
1126 576.9 105
1127 573.5 105
1128 565.7 105
1177 592.2 105
1178 581.1 105
1179 587.6 105
1180 595.1 105
1182 597 105
1183 596 105
1184 590.2 105
5 0.7 36
6 10.7 36
7 3.5 36
8 9.3 36
53 33 36
54 38.7 36
55 30.1 36
56 27.5 36
109 62.9 36
110 72.4 36
111 65.1 36
112 70.5 36
169 95.3 36
170 100.6 36
171 90.6 36
172 88.6 36
229 123.4 36
230 135.4 36
231 127.6 36
232 130.4 36
293 158.7 36
294 161 36
295 153.7 36
296 149.8 36
357 188.7 36
358 197.4 36
359 189.3 36
360 191.4 36
425 220.6 36
426 222.9 36
427 214.6 36
428 210.6 36
605 310.8 36
606 321.6 36
607 316.6 36
608 323.1 36
5 0.8 74
6 10.2 74
7 2.9 74
8 8.2 74
53 32.5 74
54 39.1 74
55 29.9 74
56 27.5 74
109 62.3 74
110 72.5 74
111 65.2 74
112 69.2 74
169 95.4 74
170 100.4 74
171 91.9 74
172 89 74
229 125 74
230 135.2 74
231 126.7 74
232 130 74
293 158.7 74
294 161.4 74
295 153.1 74
296 149.6 74
357 188.1 74
358 198.1 74
359 188.4 74
360 190.8 74
425 219.7 74
426 220.9 74
427 213.7 74
428 208.7 74
601 310 74
602 351.8 74
603 313.5 74
604 322.5 74
605 313.5 74
606 324.3 74
607 317.9 74
608 322.2 74
609 361.4 74
610 345.3 74
611 351.4 74
612 356.8 74
673 343.3 74
674 342.1 74
675 343.4 74
676 347 74
677 346.7 74
678 353.2 74
679 346.6 74
680 343.7 74
741 372.4 74
743 376.5 74
744 389.1 74
745 374.6 74
746 386.4 74
747 382.9 74
813 407.8 74
815 426.8 74
938 462.8 74
939 459.2 74
940 453.5 74
997 491.4 74
998 488.6 74
999 494.4 74
1000 502.2 74
1061 529.8 74
1063 522.3 74
1064 522.5 74
1121 560.3 74
1122 560.7 74
1123 561.2 74
1124 567.4 74
5 0.7 54
6 10.6 54
7 2.8 54
8 9 54
53 33.3 54
54 39.7 54
55 29.9 54
56 27.7 54
57 235 54
59 230.1 54
60 225.1 54
109 62.6 54
110 72.5 54
111 64.8 54
112 69.4 54
169 95.5 54
170 99 54
171 92.3 54
172 88.7 54
229 123.8 54
230 133 54
231 125.5 54
232 128.6 54
292 191 54
293 157 54
294 158.6 54
295 153.1 54
296 148.3 54
353 183.4 54
355 208 54
357 187.1 54
358 198.1 54
359 188.9 54
360 192.1 54
425 220.9 54
426 222 54
427 213.7 54
428 210.5 54
605 310.1 54
606 321.4 54
607 314.8 54
608 323.6 54
677 344.1 54
678 355.7 54
679 345.4 54
680 344.9 54
745 378.9 54
746 389.8 54
747 380.7 54
748 384.3 54
813 407 54
814 424.8 54
815 414.6 54
880 460.2 54
5 0.3 85
6 10.2 85
7 3.6 85
8 8.1 85
53 33.5 85
54 39.2 85
55 31 85
56 28.2 85
109 60.8 85
110 71.3 85
111 63.8 85
112 66.5 85
167 98.7 85
169 94.6 85
170 98.4 85
171 91.4 85
172 88 85
225 126 85
227 127.3 85
228 133.8 85
229 124.1 85
230 134.9 85
231 127.4 85
232 128 85
293 157.4 85
294 159.5 85
295 154 85
296 149 85
357 185.6 85
358 194.9 85
359 190.7 85
360 190.5 85
425 218.6 85
426 222.4 85
427 215.1 85
428 211.4 85
605 309.5 85
606 322.1 85
607 317.6 85
608 319.7 85
674 343.5 85
677 341.3 85
678 355.5 85
679 345.9 85
680 355.1 85
745 370.1 85
746 382 85
747 387.4 85
748 387.6 85
813 440 85
814 418.4 85
815 410.4 85
816 447.7 85
873 441.5 85
875 445 85
876 456.2 85
877 439.2 85
878 445.6 85
879 438.8 85
880 463.5 85
884 525.3 85
938 471.3 85
939 466.4 85
941 479.1 85
943 479.8 85
997 496.2 85
999 499.3 85
1000 503.8 85
1063 535.2 85
1064 531.4 85
1117 577.4 85
1118 569.4 85
1119 572.6 85
1120 571.7 85
1125 598.8 85
1127 599.5 85
1129 619.7 85
1130 582.5 85
1131 590.9 85
1132 591.7 85
1181 648.3 85
1184 629.5 85
1185 643.8 85
1187 625.6 85
1188 615.3 85
5 0.3 81
6 9.7 81
7 3.3 81
8 8.1 81
53 32.3 81
54 38.8 81
55 29.4 81
56 27.2 81
109 60.6 81
110 71.6 81
111 64.7 81
112 69.6 81
169 94 81
170 101.7 81
171 91.3 81
172 88.9 81
229 124.6 81
230 134.3 81
231 126.2 81
232 129.2 81
293 157 81
294 160.8 81
295 151.6 81
296 150.3 81
357 183.9 81
358 198.2 81
359 188 81
360 191 81
425 219.8 81
426 220.2 81
427 215.1 81
428 209.9 81
605 310.4 81
606 321.7 81
607 316 81
608 322.7 81
677 341.5 81
678 353 81
679 344.1 81
680 340.7 81
741 434.5 81
743 384.1 81
745 371.9 81
746 382.3 81
747 378 81
748 383.9 81
810 416.9 81
811 395.7 81
813 403.2 81
814 414 81
815 406.6 81
816 401.9 81
873 463.7 81
877 432.9 81
878 446.7 81
879 439.7 81
880 441.2 81
937 487.2 81
938 466.5 81
939 480.6 81
940 474.9 81
941 467.3 81
942 471.8 81
943 465.3 81
944 462 81
997 496.8 81
999 501.8 81
1000 514.5 81
1001 499.6 81
1002 513.7 81
1003 506.7 81
1004 507.2 81
1061 553.5 81
1063 523.3 81
1064 527.3 81
1065 541.7 81
1067 540.1 81
1117 560.4 81
1118 564.9 81
1119 558.1 81
1120 554.1 81
5 0.8 79
6 10.3 79
7 3 79
8 8.3 79
53 33.7 79
54 38.5 79
55 30.4 79
56 28 79
109 63 79
110 72.8 79
111 64.9 79
112 69.3 79
169 92.7 79
170 97.7 79
171 90.3 79
172 87.7 79
225 132.7 79
226 141.1 79
227 137.5 79
228 145.2 79
229 122.8 79
230 134.3 79
231 125.7 79
232 128.5 79
293 154.1 79
294 159.9 79
295 152.9 79
296 148.7 79
357 189.6 79
358 198.1 79
359 190.3 79
360 189.3 79
425 220.6 79
426 219.1 79
427 214.5 79
428 208.1 79
605 313.4 79
606 320.5 79
607 317.5 79
608 318.1 79
609 389.2 79
677 342.4 79
678 350.9 79
679 344.2 79
680 338.3 79
745 372.8 79
746 384.2 79
747 377.8 79
748 381.9 79
813 404.2 79
814 413.2 79
815 406.3 79
816 403.5 79
877 438.9 79
878 447.1 79
879 443.3 79
880 444.5 79
937 473.2 79
938 471.2 79
939 467.7 79
940 464.1 79
941 466 79
942 475.4 79
943 469.9 79
944 463.7 79
996 505.4 79
997 496.4 79
998 510.5 79
999 500.1 79
1000 509.6 79
1001 499.6 79
1002 513.5 79
1003 503.2 79
1004 505.5 79
1065 542.6 79
1066 540.5 79
1067 536.3 79
1068 534.7 79
1188 628.7 79
5 0.8 91
6 9.6 91
7 2 91
8 7.2 91
53 32.7 91
54 38.5 91
55 30.2 91
56 27.3 91
109 60.9 91
110 72.9 91
111 63.9 91
112 68.6 91
169 95.7 91
170 99.9 91
171 91.6 91
172 88.6 91
225 129.3 91
229 122.4 91
230 133.7 91
231 125.8 91
232 128.5 91
233 216 91
234 182.4 91
235 185.7 91
293 156.3 91
294 158.1 91
295 151.9 91
296 147.1 91
297 206.5 91
299 198.5 91
300 194.6 91
353 183 91
354 184.2 91
355 187.7 91
357 186.8 91
358 196.6 91
359 188.9 91
360 187.5 91
425 219.4 91
426 224.6 91
427 214 91
428 210.7 91
601 349.3 91
605 310.2 91
606 320.3 91
607 317.2 91
608 320.8 91
674 344.8 91
675 357.6 91
676 345.4 91
677 342.6 91
678 354.2 91
679 344.6 91
680 343.1 91
741 401.4 91
744 386.7 91
745 372 91
746 385.6 91
747 376 91
748 382.5 91
809 427.7 91
810 407.7 91
811 401.1 91
813 410.5 91
814 413.3 91
815 404.9 91
816 400 91
873 442 91
875 436.4 91
876 442.5 91
877 442.5 91
878 453.5 91
879 446.8 91
880 444.9 91
938 468.3 91
939 465.3 91
941 475.1 91
942 477.4 91
943 472.5 91
944 469.9 91
1002 517.1 91
1003 508.3 91
1004 507.4 91
1065 546 91
1066 541.1 91
1067 537.5 91
1068 533.3 91
1126 594.7 91
1127 575.6 91
1182 603.4 91
1183 605.1 91
5 0.4 87
6 9.4 87
7 2.9 87
8 8 87
53 33.4 87
54 39.6 87
55 30.2 87
56 27.5 87
109 62.2 87
110 72.7 87
111 65.3 87
112 68.3 87
169 94.9 87
170 99.2 87
171 90.2 87
172 87.5 87
229 124.8 87
230 135.8 87
231 128.1 87
232 130.8 87
293 158.3 87
294 161.8 87
295 154.2 87
296 151.1 87
357 188.6 87
358 198.5 87
359 190.3 87
360 191.4 87
425 220.2 87
426 220.4 87
427 214.9 87
428 212 87
605 309.5 87
606 321.2 87
607 315.5 87
608 321.3 87
677 342.8 87
678 350 87
679 342.3 87
680 340.6 87
741 390.6 87
744 396.6 87
745 372.7 87
746 384.6 87
747 376.8 87
748 382.3 87
813 405.9 87
814 412.4 87
815 404.8 87
816 394 87
877 436.4 87
878 445.9 87
879 439.2 87
880 443.2 87
938 476.8 87
939 478.5 87
941 468.2 87
942 474.2 87
943 464.6 87
944 460 87
1001 497.1 87
1002 508.2 87
1003 502.3 87
1004 503.8 87
1005 540 87
1006 524.2 87
1007 532 87
1008 534 87
1062 541.3 87
1065 528.4 87
1066 537.2 87
1067 528.1 87
1068 521.2 87
1069 564.7 87
1070 576.8 87
1071 555.6 87
1072 552.5 87
1125 557.5 87
1126 570.6 87
1127 562.1 87
1128 565.8 87
1129 584 87
1131 587.7 87
1181 591.9 87
1182 597 87
1183 592.9 87
1184 585.9 87
5 0.3 94
6 10.9 94
7 4.5 94
8 8.3 94
52 59.7 94
53 33.1 94
54 39.2 94
55 30.3 94
56 27.5 94
109 62.8 94
110 72.3 94
111 65 94
112 68.1 94
165 106.1 94
169 96.6 94
170 99.6 94
171 92.3 94
172 90.4 94
226 171.2 94
228 137.5 94
229 125.9 94
230 138 94
231 127.7 94
232 131.4 94
293 160 94
294 162.3 94
295 154 94
296 150.4 94
353 210.6 94
357 188.7 94
358 199.5 94
359 190.8 94
360 192.2 94
425 222.3 94
426 223.1 94
427 216.8 94
428 212.4 94
605 312.2 94
606 321.8 94
607 318.1 94
608 318.1 94
677 344 94
678 352 94
679 344.6 94
680 338.6 94
745 374.6 94
746 384.3 94
747 379.4 94
748 380.7 94
810 414.9 94
811 417.8 94
813 405.4 94
814 411.2 94
815 405.7 94
816 401.5 94
873 443.4 94
875 463.4 94
876 451.8 94
877 434.1 94
878 444.6 94
879 438.1 94
880 442.4 94
937 469.3 94
938 472 94
939 465.8 94
940 474.9 94
941 467.3 94
942 475.8 94
943 466 94
944 464.6 94
997 501 94
999 506.7 94
1001 496.3 94
1002 507.2 94
1003 502.1 94
1004 505.5 94
1061 526.5 94
1063 524.2 94
1065 530.2 94
1066 540.4 94
1067 531.7 94
1068 539.4 94
1121 554.2 94
1122 554.2 94
1123 556.2 94
1124 563.9 94
1125 557.1 94
1126 569.1 94
1127 564.2 94
1128 616.4 94
1181 590.6 94
1182 600.5 94
1183 592.4 94
1184 593.7 94
5 0.4 104
6 9.9 104
7 2.8 104
8 7.3 104
50 44.9 104
53 30.6 104
54 36.7 104
55 28.2 104
56 26.6 104
109 62.6 104
110 72.1 104
111 64.2 104
112 66.2 104
114 104.9 104
115 111.2 104
116 116.2 104
168 116.3 104
169 96 104
170 97.1 104
171 90.1 104
172 87.4 104
225 133.4 104
229 124.3 104
230 133.2 104
231 125.7 104
232 125.3 104
236 178 104
293 157.3 104
294 160.7 104
295 153.5 104
296 148.3 104
357 186.6 104
358 196.5 104
359 187.6 104
360 192 104
422 206.3 104
423 214.5 104
424 217.8 104
425 219.7 104
426 222.3 104
427 214.1 104
428 212.2 104
601 367.5 104
605 310 104
606 321 104
607 319.2 104
608 321.9 104
673 354.7 104
674 345.9 104
675 338.5 104
676 336.6 104
677 341.8 104
678 351 104
679 344.3 104
680 345.5 104
741 369.7 104
742 378.4 104
743 377.5 104
744 382.3 104
745 374 104
746 385 104
747 378.1 104
748 383.3 104
810 402.1 104
811 404.1 104
812 398.4 104
813 403.5 104
814 411.6 104
815 404.1 104
816 404.7 104
873 432.6 104
875 433.3 104
876 445.7 104
877 434.7 104
878 443.5 104
879 438.9 104
880 443.7 104
937 472.8 104
938 468.8 104
939 467.7 104
941 471.3 104
942 472 104
943 466.5 104
944 462.6 104
998 506.8 104
1001 500 104
1002 512.1 104
1003 505 104
1004 500.3 104
1061 537.2 104
1065 532.6 104
1066 535.7 104
1067 531.9 104
1068 523.3 104
1126 576.4 104
1127 572.9 104
1128 566 104
1177 591.4 104
1178 583 104
1179 588.7 104
1180 596.6 104
1182 598.3 104
1183 595.7 104
1184 587.3 104
5 0.2 36
6 10.6 36
7 3.2 36
8 7.1 36
53 32.8 36
54 39.1 36
55 30.5 36
56 27.4 36
109 63 36
110 73 36
111 65.2 36
112 69.3 36
169 95.9 36
170 100.2 36
171 91.4 36
172 88.6 36
229 123.4 36
230 135.2 36
231 127.5 36
232 130.4 36
293 158.8 36
294 161.4 36
295 153.5 36
296 150.1 36
357 187.7 36
358 197.9 36
359 188.9 36
360 191.4 36
425 221.7 36
426 222.7 36
427 214.2 36
428 210.5 36
605 311 36
606 321.7 36
607 316.9 36
608 323.5 36
5 0.7 71
6 10.4 71
7 3.1 71
8 9.7 71
53 32.8 71
54 38.6 71
55 29.8 71
56 28.2 71
109 62.5 71
110 72.9 71
111 64.9 71
112 68.9 71
169 95.6 71
170 100.4 71
171 91.9 71
172 88.6 71
229 125.5 71
230 135.1 71
231 127.1 71
232 129.7 71
293 157.6 71
294 161.2 71
295 153.2 71
296 149.2 71
357 188.3 71
358 197.6 71
359 188.1 71
360 191.2 71
425 220.2 71
426 221.6 71
427 213.9 71
428 208.4 71
601 307.2 71
603 313 71
605 314.3 71
606 324.1 71
607 319.5 71
608 321.5 71
609 359 71
610 346.9 71
611 352.5 71
612 353.9 71
673 345.4 71
674 343.5 71
675 341 71
676 344.4 71
677 346.6 71
678 354.3 71
679 345.6 71
741 373.7 71
742 377.9 71
743 375.4 71
744 384 71
745 376.4 71
746 385.3 71
747 382 71
813 410.5 71
815 426.5 71
938 462.9 71
939 459.5 71
940 454.9 71
997 494.9 71
999 492.3 71
1000 502.1 71
1061 530.4 71
1063 520.2 71
1064 523.6 71
1121 565.5 71
1122 560.2 71
1123 560.1 71
1124 565.6 71
5 0.5 54
6 10.3 54
7 2.8 54
8 9.2 54
53 33.3 54
54 39.2 54
55 29.9 54
56 27.4 54
57 236.6 54
59 231.4 54
60 225.1 54
109 62.3 54
110 72.1 54
111 64.9 54
112 69.8 54
169 96.1 54
170 99.5 54
171 91.9 54
172 88.6 54
226 153.6 54
229 123.7 54
230 133.1 54
231 125.4 54
232 129.4 54
292 190.4 54
293 156.8 54
294 158.7 54
295 153.2 54
296 147.8 54
353 182.2 54
356 253.7 54
357 189.6 54
358 197.8 54
359 189.4 54
360 192.3 54
425 219.3 54
426 221.5 54
427 214.4 54
428 210.3 54
605 310.9 54
606 321.4 54
607 315.2 54
608 321.9 54
677 341.2 54
678 355.6 54
679 348.4 54
680 345.4 54
745 380.5 54
746 390.2 54
747 385.9 54
748 382.6 54
813 408.5 54
814 424.1 54
815 414.2 54
5 0.5 83
6 10.6 83
7 3.8 83
8 9.2 83
53 33.3 83
54 39.7 83
55 30.7 83
56 28.1 83
109 61.2 83
110 71.5 83
111 64.2 83
112 67.1 83
167 100.1 83
169 92.9 83
170 98.6 83
171 91 83
172 87.6 83
225 129.6 83
227 129.3 83
228 137.4 83
229 124.2 83
230 134.2 83
231 127.4 83
232 128.2 83
293 157.1 83
294 160.1 83
295 154.1 83
296 148.2 83
357 184.3 83
358 195.7 83
359 189.5 83
360 190.6 83
425 217.6 83
426 222 83
427 215.7 83
428 211.5 83
605 310.7 83
606 321.3 83
607 317.9 83
608 318.9 83
677 342.4 83
678 355 83
679 346 83
680 352.1 83
745 371.1 83
746 382.2 83
747 388.8 83
748 387.6 83
752 477.7 83
813 438.8 83
814 420.1 83
815 410.4 83
816 445.3 83
873 435.8 83
874 439.4 83
875 444.4 83
876 454.6 83
877 440.1 83
878 444.1 83
879 439.1 83
880 458.9 83
884 523.1 83
938 470.1 83
939 465.8 83
941 474.3 83
943 477.7 83
997 495.1 83
998 537.9 83
999 498.3 83
1000 503.4 83
1063 528.1 83
1064 527.1 83
1117 574.2 83
1118 571.1 83
1119 574.2 83
1120 571.6 83
1129 620.9 83
1130 583.6 83
1131 589.7 83
1132 591.7 83
1184 627.3 83
1185 642.7 83
1188 612.4 83
5 0.2 77
6 9.2 77
7 3.4 77
8 8.6 77
53 32.3 77
54 38.7 77
55 29 77
56 27.6 77
109 60.4 77
110 70.7 77
111 64.7 77
112 68.3 77
169 94.6 77
170 101.3 77
171 91.5 77
172 88 77
229 125.1 77
230 134.2 77
231 125.5 77
232 128.4 77
293 158.3 77
294 160.7 77
295 151.9 77
296 150.7 77
357 183.4 77
358 197.9 77
359 187.1 77
360 190 77
425 220.6 77
426 220.6 77
427 215.5 77
428 209.7 77
605 310.2 77
606 321.8 77
607 316.9 77
608 321.8 77
677 342.2 77
678 353 77
679 344.4 77
680 339.2 77
743 383.2 77
745 371.7 77
746 383.2 77
747 377.8 77
748 382 77
810 414.9 77
811 399.8 77
813 404.1 77
814 414.6 77
815 406.1 77
816 401.2 77
873 466.7 77
877 432.6 77
878 445.7 77
879 439.2 77
880 443.6 77
938 469.9 77
939 477.1 77
941 468 77
942 473 77
943 465.9 77
944 462.6 77
997 497 77
999 501.1 77
1000 512.2 77
1001 497.9 77
1002 512.1 77
1003 505.4 77
1004 508.4 77
1061 556.1 77
1063 526.2 77
1064 528.3 77
1065 542.2 77
1117 557.4 77
1118 564.2 77
1119 555.8 77
1120 553.1 77
5 0.2 74
6 10.1 74
7 2.9 74
8 7.6 74
53 33.7 74
54 39.5 74
55 30.5 74
56 27.7 74
109 62.8 74
110 73 74
111 65 74
112 69.4 74
169 92.3 74
170 97.8 74
171 90.1 74
172 88 74
225 135.1 74
226 140.6 74
227 138.1 74
229 122.4 74
230 134.2 74
231 125.3 74
232 130 74
293 153.6 74
294 159.5 74
295 153 74
296 148.1 74
357 188.5 74
358 197.7 74
359 190.8 74
360 189.5 74
425 220.9 74
426 218.2 74
427 214.4 74
428 207.9 74
605 312.7 74
606 320 74
607 317.6 74
608 318.8 74
609 393.1 74
677 343.5 74
678 349.9 74
679 344.7 74
680 340.3 74
745 373.7 74
746 384.3 74
747 378.6 74
748 379.9 74
813 404.4 74
814 413.8 74
815 405 74
816 402.2 74
877 436.8 74
878 448.6 74
879 444.2 74
880 442.1 74
937 470.9 74
938 470.9 74
939 465.7 74
941 465.2 74
942 476.4 74
943 470.1 74
944 464 74
999 501.8 74
1000 509.3 74
1001 501 74
1002 513.2 74
1003 503.7 74
1004 505.5 74
1065 543.5 74
1066 541.1 74
1067 536.2 74
1068 538.3 74
1188 628.4 74
5 0.9 90
6 10 90
7 2.6 90
8 8.5 90
53 32.2 90
54 37.1 90
55 29.8 90
56 27.4 90
109 61.1 90
110 72.8 90
111 64.1 90
112 68.6 90
169 95.2 90
170 100.2 90
171 91.9 90
172 88.6 90
177 215.3 90
225 128.1 90
229 123.6 90
230 134.6 90
231 125.8 90
232 127.2 90
233 216.7 90
234 180.6 90
235 186.8 90
293 156.3 90
294 158.6 90
295 151.9 90
296 147.2 90
297 204.6 90
299 198.1 90
300 194.7 90
353 185.1 90
354 186.5 90
355 189.4 90
357 185.9 90
358 197.2 90
359 188.8 90
360 188.3 90
425 219.4 90
426 222.8 90
427 213.8 90
428 211.5 90
605 310.6 90
606 321.3 90
607 316.8 90
608 319.8 90
674 344.3 90
675 359.4 90
676 346.7 90
677 341.1 90
678 351.6 90
679 345.8 90
680 340.9 90
742 409.1 90
744 386.5 90
745 372.1 90
746 386.7 90
747 376.7 90
748 382 90
810 405.7 90
811 402.2 90
812 425.7 90
813 409.4 90
814 411.3 90
815 404.8 90
816 397.5 90
873 442.4 90
875 437.6 90
876 443.5 90
877 439.5 90
878 452.8 90
879 446.7 90
880 445.2 90
938 469.6 90
939 464.6 90
941 475.9 90
942 477.8 90
943 472.9 90
944 469.9 90
1002 518.3 90
1004 507.3 90
1066 541.1 90
1067 537.4 90
1068 532.9 90
1127 577.7 90
1128 571.4 90
1182 605.4 90
1183 604.4 90
1184 602 90
5 0.6 85
6 10.8 85
7 3 85
8 7.8 85
53 33.2 85
54 39 85
55 29.9 85
56 27.9 85
109 62 85
110 72.9 85
111 65.1 85
112 66.9 85
169 95 85
170 98.9 85
171 90.3 85
172 88.6 85
229 122.7 85
230 136.3 85
231 127.8 85
232 130 85
293 158 85
294 161.6 85
295 154.5 85
296 149.5 85
357 187.7 85
358 197.1 85
359 190.1 85
360 192.2 85
425 218.9 85
426 220.7 85
427 215 85
428 211.6 85
605 309.7 85
606 320.7 85
607 315.4 85
608 320.9 85
677 342.5 85
678 349.6 85
679 341.1 85
680 337.9 85
741 391.2 85
744 397.2 85
745 372.3 85
746 384 85
747 376.6 85
748 383 85
813 406.2 85
814 416.2 85
815 404.6 85
816 400.6 85
877 436.8 85
878 446.5 85
879 438.2 85
880 443.6 85
938 475.7 85
939 476.9 85
941 468.2 85
942 473.4 85
943 464.2 85
944 460.3 85
1001 496.4 85
1002 507.2 85
1003 502.8 85
1004 507.1 85
1005 540.5 85
1006 520.8 85
1007 531.5 85
1008 533.8 85
1065 528.5 85
1066 536.9 85
1067 528.3 85
1068 521 85
1069 563.6 85
1071 554.5 85
1072 550.7 85
1125 557 85
1126 570.7 85
1127 561.8 85
1128 565.2 85
1129 584.4 85
1131 586.9 85
1181 592.2 85
1182 598.2 85
1183 591.3 85
1184 586.8 85
5 0.3 96
6 10.8 96
7 4.4 96
8 7.9 96
53 32.4 96
54 40.5 96
55 30.2 96
56 27.5 96
106 62.3 96
107 63.6 96
109 62.3 96
110 73 96
111 65.2 96
112 70.2 96
165 103.7 96
169 97.7 96
170 99.9 96
171 92 96
172 89.1 96
226 169.4 96
228 140.1 96
229 126.5 96
230 136.3 96
231 127.8 96
232 130.5 96
293 160 96
294 162.3 96
295 154.2 96
296 151.8 96
353 214.9 96
357 188.1 96
358 198.8 96
359 190.7 96
360 191.6 96
362 229.7 96
425 221.9 96
426 222.7 96
427 217.1 96
428 212.2 96
605 312.5 96
606 322.9 96
607 317.9 96
608 320.2 96
677 343.6 96
678 349.8 96
679 344.7 96
680 339.3 96
745 373.8 96
746 384 96
747 379.6 96
748 380.7 96
810 418.4 96
811 418.5 96
813 405.8 96
814 412 96
815 405.4 96
816 400.6 96
873 441.9 96
875 462.8 96
876 450.9 96
877 434.5 96
878 444.5 96
879 438.1 96
880 442.7 96
937 467.8 96
938 470.2 96
939 466.8 96
940 473.2 96
941 467.1 96
942 474.1 96
943 466.1 96
944 464 96
997 493.6 96
999 504.7 96
1001 498.2 96
1002 507.2 96
1003 502.5 96
1004 504.6 96
1061 527.4 96
1062 564.3 96
1063 523.6 96
1065 530.1 96
1066 541.1 96
1067 534.7 96
1121 555 96
1122 555.8 96
1123 556.5 96
1124 563.8 96
1125 560.7 96
1126 568.9 96
1127 564.9 96
1128 618.2 96
1181 591.2 96
1182 602.4 96
1183 593.1 96
1184 590 96
5 0.3 100
6 9.6 100
7 2.9 100
8 8 100
50 45.5 100
51 102 100
53 30.9 100
54 36.9 100
55 28.2 100
56 27 100
109 61.4 100
110 71 100
111 63.7 100
112 65.8 100
113 114.5 100
114 105.1 100
115 112.5 100
116 116.3 100
169 94.8 100
170 97.7 100
171 90.3 100
172 86.1 100
225 131.7 100
229 124.2 100
230 134.6 100
231 125.3 100
232 125.7 100
293 157.6 100
294 162 100
295 153.1 100
296 148.8 100
357 185.4 100
358 197.1 100
359 187.7 100
360 191.6 100
422 207.7 100
423 212.7 100
425 219.3 100
426 223.2 100
427 214.3 100
428 212.4 100
605 311.6 100
606 321.1 100
607 318.5 100
608 322.7 100
673 354.9 100
674 342.6 100
675 338.6 100
676 341.4 100
677 343.5 100
678 351.9 100
679 345.6 100
680 346.3 100
741 368.3 100
742 376.9 100
743 376.4 100
744 380.6 100
745 373 100
746 384.5 100
747 381.2 100
748 382.2 100
810 403.3 100
811 405.5 100
813 403.8 100
814 411.9 100
815 404 100
816 404 100
873 434.3 100
876 447.5 100
877 434.8 100
878 443.6 100
879 438.7 100
880 441.1 100
937 473.7 100
938 470.6 100
939 467.2 100
941 469.3 100
942 472.4 100
943 467.2 100
944 461.6 100
998 504.5 100
999 512.5 100
1001 499.3 100
1002 509.9 100
1003 505.6 100
1004 500.7 100
1065 530.9 100
1066 535.1 100
1067 530.9 100
1068 523.8 100
1126 577.2 100
1127 572.3 100
1128 564.4 100
1177 589.5 100
1178 584 100
1179 588.5 100
1180 600.6 100
1182 599.1 100
1183 595.3 100
1184 588.4 100
5 0.4 36
6 10.6 36
7 3.8 36
8 8.3 36
53 33.7 36
54 38.5 36
55 29.9 36
56 27.6 36
109 63.1 36
110 73 36
111 65.4 36
112 69.7 36
169 96.7 36
170 99.8 36
171 91.4 36
172 88.5 36
229 124.5 36
230 134.8 36
231 127.2 36
232 130.7 36
293 157.9 36
294 160.8 36
295 153.4 36
296 149.8 36
357 188.1 36
358 197.8 36
359 189 36
360 191.5 36
425 221.1 36
426 222.9 36
427 214.4 36
428 210.9 36
605 311.2 36
606 321.6 36
607 316.8 36
608 322.8 36
5 0.2 75
6 10.2 75
7 2.9 75
8 9.2 75
53 32.6 75
54 38.4 75
55 29.8 75
56 27.6 75
109 62.5 75
110 73.1 75
111 65.2 75
112 70 75
169 95 75
170 99.9 75
171 92.1 75
172 89 75
229 125 75
230 135.2 75
231 126.6 75
232 130.4 75
293 157.8 75
294 161.4 75
295 153.6 75
296 149.4 75
357 187.6 75
358 198 75
359 188 75
360 191.1 75
425 218.6 75
426 220.9 75
427 213.9 75
428 208.5 75
601 310.4 75
602 352.2 75
603 314.2 75
604 321.3 75
605 313.6 75
606 325.4 75
607 320.7 75
608 322.5 75
609 353.5 75
610 348.3 75
611 351 75
612 353.7 75
673 344.3 75
674 344.1 75
675 341.9 75
676 346.3 75
677 346.4 75
678 353.6 75
679 347 75
741 374 75
743 376.9 75
744 381.7 75
745 375.6 75
746 385.3 75
747 384.2 75
748 386.3 75
813 410.5 75
815 423.5 75
937 491 75
938 461.6 75
939 462 75
940 451.2 75
997 492.5 75
999 494 75
1000 502 75
1061 527 75
1063 520.5 75
1064 525.4 75
1121 562.6 75
1122 555.4 75
1123 561.4 75
1124 566.2 75
1177 600.1 75
5 0.3 55
6 10 55
7 2.3 55
8 9 55
53 33.6 55
54 39.3 55
55 29.5 55
56 27.8 55
57 233.9 55
59 230.2 55
60 224.7 55
109 62.3 55
110 72.2 55
111 65.2 55
112 68.7 55
169 95.5 55
170 99.6 55
171 92.2 55
172 89.5 55
226 157.2 55
229 123.8 55
230 132.8 55
231 125.8 55
232 129.4 55
292 191.8 55
293 156.7 55
294 158.8 55
295 152.7 55
296 148.5 55
353 182.6 55
355 211.2 55
357 186.8 55
358 196.8 55
359 189.5 55
360 192.3 55
425 219.7 55
426 221.5 55
427 214.4 55
428 209.8 55
605 308.9 55
606 320.8 55
607 315.5 55
608 321.4 55
677 343.1 55
678 356.2 55
679 345.9 55
680 344.8 55
745 379.3 55
746 393.9 55
747 385 55
748 381.8 55
813 409.2 55
814 420.9 55
815 415.1 55
816 413.6 55
5 0.4 85
6 10.6 85
7 3.8 85
8 9.7 85
53 33.6 85
54 39.3 85
55 31 85
56 27.4 85
109 61.3 85
110 71 85
111 64 85
112 66.3 85
167 99.2 85
169 94 85
170 98.3 85
171 91.1 85
172 87.4 85
227 127.6 85
228 134.7 85
229 124.9 85
230 134.8 85
231 127.1 85
232 127.3 85
293 155.8 85
294 160.4 85
295 154 85
296 149.1 85
357 183.9 85
358 195.6 85
359 189.6 85
360 191.8 85
425 217.6 85
426 223.1 85
427 215.2 85
428 211.7 85
605 311 85
606 321.5 85
607 318.3 85
608 318 85
677 341.6 85
678 356.7 85
679 345.9 85
680 355.1 85
745 371.5 85
746 381.8 85
747 390.7 85
748 386.1 85
752 477.5 85
813 439 85
814 420.6 85
815 412.7 85
816 446.9 85
873 438.3 85
874 428.2 85
875 446.5 85
876 453.8 85
877 441.6 85
878 444.3 85
879 438.7 85
880 462.7 85
884 523.4 85
938 472 85
939 464.7 85
940 457 85
941 474.3 85
943 479.3 85
997 494.9 85
999 497.9 85
1000 505.1 85
1062 555.8 85
1064 530.6 85
1117 575.9 85
1118 572.5 85
1119 573.3 85
1120 570.2 85
1125 600.9 85
1129 619.4 85
1130 582.1 85
1131 588 85
1132 591.5 85
1173 590.8 85
1181 643.1 85
1184 629.2 85
1185 647.8 85
1188 614.2 85
5 -0.1 77
6 9.6 77
7 3 77
8 8.5 77
53 32.3 77
54 38.3 77
55 29.2 77
56 28.1 77
109 61.2 77
110 71.2 77
111 65 77
112 68.9 77
169 95 77
170 100.3 77
171 91.4 77
172 88.1 77
229 124.3 77
230 133.6 77
231 126.3 77
232 128.9 77
293 158.7 77
294 160.1 77
295 152 77
296 150.7 77
357 184.4 77
358 197.5 77
359 187.3 77
360 189.6 77
425 221.7 77
426 220.3 77
427 215.1 77
428 209.7 77
605 310.6 77
606 321.2 77
607 316.6 77
608 322.3 77
677 342.6 77
678 353.8 77
679 344.6 77
680 342.8 77
743 384.3 77
745 372.1 77
746 383 77
747 377.6 77
748 382.7 77
810 417.1 77
811 400.6 77
813 402.9 77
814 413.3 77
815 406.5 77
816 399.7 77
873 469.6 77
877 432.6 77
878 444.4 77
879 439.5 77
880 443.4 77
937 486.5 77
938 469.1 77
939 475.9 77
941 467 77
942 471.6 77
943 465.4 77
944 461.1 77
997 494.7 77
999 501.3 77
1001 500.7 77
1002 513.3 77
1003 506.4 77
1004 504.6 77
1061 554.7 77
1063 523.8 77
1064 528.2 77
1067 538 77
1117 559.5 77
1118 565.1 77
1119 557.4 77
1120 554.5 77
5 0.5 75
6 10.4 75
7 2.6 75
8 8.5 75
53 33.4 75
54 38.6 75
55 30.5 75
56 27 75
109 63 75
110 72.6 75
111 65.2 75
112 69.3 75
169 92.5 75
170 97.4 75
171 90.3 75
172 88 75
225 135.7 75
226 142.3 75
227 137.9 75
228 143.3 75
229 123.9 75
230 134 75
231 125.6 75
232 128.9 75
293 154.2 75
294 160.3 75
295 153.3 75
296 148.7 75
357 186.2 75
358 198.1 75
359 190.7 75
360 189.6 75
425 219.4 75
426 219 75
427 214.7 75
428 207.9 75
605 312.4 75
606 319.9 75
607 317.5 75
608 319.5 75
609 392.7 75
677 343.7 75
678 350.7 75
679 343.9 75
680 338.7 75
745 373.1 75
746 383.9 75
747 377.8 75
748 380.7 75
813 405.7 75
814 413.4 75
815 406.5 75
816 403 75
877 436.5 75
878 448.1 75
879 443.9 75
880 445.3 75
937 470.2 75
938 471.4 75
941 465.9 75
942 475.2 75
943 469.9 75
944 462.5 75
998 513 75
999 503.4 75
1000 506.1 75
1001 500.3 75
1002 513.4 75
1003 504.5 75
1004 505.5 75
1065 539.7 75
1066 541 75
1067 534.7 75
1068 538.7 75
1188 625.8 75
5 0.8 91
6 10.6 91
7 2.2 91
8 8.4 91
53 32.9 91
54 37.5 91
55 30 91
56 27.8 91
109 60.8 91
110 72.7 91
111 63.9 91
112 69.2 91
169 95.9 91
170 100.1 91
171 92.1 91
172 88.1 91
225 127.5 91
227 140 91
229 122.9 91
230 135.2 91
231 125.7 91
232 128.5 91
234 181.2 91
235 186.5 91
293 157.2 91
294 159.4 91
295 151.5 91
296 147.1 91
297 202.5 91
299 199.9 91
300 195.1 91
353 185.3 91
354 192 91
355 187.3 91
357 186.7 91
358 197 91
359 188.7 91
360 187.9 91
425 220.2 91
426 221.5 91
427 213.8 91
428 211.7 91
605 310.7 91
606 320.5 91
607 315.9 91
608 320.1 91
674 344.7 91
677 342.7 91
678 352.1 91
679 346 91
680 337.6 91
741 406.3 91
742 407.1 91
744 384.7 91
745 369.9 91
746 385 91
747 375.7 91
748 383.1 91
809 425.9 91
810 406.5 91
811 403.6 91
813 407.7 91
814 412.9 91
815 406.4 91
816 399.3 91
873 438.3 91
875 437.4 91
876 442.5 91
877 443.4 91
878 454.4 91
879 445.4 91
880 446.6 91
938 471 91
939 465 91
941 477.3 91
942 479.3 91
943 473.2 91
944 471.5 91
1001 575.6 91
1002 517.4 91
1003 510.5 91
1065 546.8 91
1066 538 91
1067 539.9 91
1068 532.9 91
1126 590.2 91
1127 579.2 91
1128 572.3 91
1182 606 91
1183 605.2 91
1184 606.5 91
5 0.8 84
6 10.4 84
7 3.1 84
8 7.5 84
53 32.7 84
54 38.2 84
55 30.2 84
56 27.6 84
109 61.4 84
110 72.4 84
111 65.5 84
112 69 84
169 94.6 84
170 99.6 84
171 90.2 84
172 87.3 84
229 123.8 84
230 135.6 84
231 128 84
232 128.7 84
293 159.4 84
294 162.8 84
295 153.7 84
296 149.9 84
357 189.4 84
358 199 84
359 189.9 84
360 192.1 84
425 219.3 84
426 221.2 84
427 214.2 84
428 211.8 84
605 309.8 84
606 321.4 84
607 315.9 84
608 321.1 84
677 342.4 84
678 349.9 84
679 341.8 84
680 339.1 84
741 389.1 84
744 394.9 84
745 372.3 84
746 384 84
747 376.6 84
748 385 84
813 405.6 84
814 415.6 84
815 403.8 84
816 402.7 84
877 436.4 84
878 445.8 84
879 439.2 84
880 444.2 84
938 475.9 84
939 478.7 84
941 468.8 84
942 473.9 84
943 464.1 84
944 459.3 84
1001 498.9 84
1002 508.3 84
1003 503 84
1004 506.4 84
1005 539.2 84
1007 530.8 84
1008 532.8 84
1065 528.6 84
1066 537.6 84
1067 528.4 84
1068 519.6 84
1069 562.1 84
1071 555.5 84
1072 549.5 84
1125 558.5 84
1126 571.1 84
1127 561.2 84
1128 564.6 84
1129 588.5 84
1131 586.7 84
1181 593.1 84
1182 599 84
1183 590.9 84
1184 587.5 84
5 0.5 94
6 10.9 94
7 4.7 94
8 7.6 94
53 32.4 94
54 39.9 94
55 30.6 94
56 27.5 94
109 62.9 94
110 73.1 94
111 65.3 94
112 67.7 94
165 100.5 94
169 98.3 94
170 98.8 94
171 92 94
172 88.7 94
227 147.2 94
229 126.4 94
230 137.5 94
231 127.8 94
232 131.2 94
293 161 94
294 161.9 94
295 154.4 94
296 152.5 94
353 213.7 94
357 187.5 94
358 198.1 94
359 190.9 94
360 193.3 94
425 220.7 94
426 222.9 94
427 216.8 94
428 211.9 94
605 313.1 94
606 322.9 94
607 318.1 94
608 318.4 94
677 344 94
678 350 94
679 344.9 94
680 340.5 94
745 373 94
746 385.2 94
747 379.9 94
748 378.9 94
810 415.1 94
811 419.8 94
813 405.8 94
814 412.1 94
815 405.3 94
816 400.6 94
873 443.4 94
875 461.5 94
876 451.8 94
877 434.2 94
878 444.8 94
879 438 94
880 441.9 94
937 468.5 94
938 473 94
939 467.2 94
940 472.4 94
941 466.8 94
942 475.6 94
943 465.7 94
944 464.5 94
997 499.4 94
998 509.1 94
999 508.6 94
1001 497.5 94
1002 507.9 94
1003 503.1 94
1004 505.2 94
1061 527.5 94
1062 566.4 94
1063 524.6 94
1065 529.4 94
1066 542.4 94
1067 530.8 94
1068 528.3 94
1121 555.5 94
1122 554.7 94
1123 557.9 94
1124 562.8 94
1125 559.2 94
1126 569.7 94
1127 564.8 94
1128 619.5 94
1181 591 94
1182 601.1 94
1183 592 94
1184 591.2 94
5 0.5 105
6 10.1 105
7 3.2 105
8 8.2 105
50 44.8 105
51 105.4 105
53 30.7 105
54 36.8 105
55 28.1 105
56 26.4 105
109 62.1 105
110 72.5 105
111 64.2 105
112 66 105
113 117.9 105
114 105.3 105
115 111.9 105
116 116.6 105
168 118.1 105
169 95.8 105
170 98 105
171 90.1 105
172 87.2 105
174 157.7 105
229 123.4 105
230 134.3 105
231 125.6 105
232 125.8 105
236 178.2 105
293 157.6 105
294 160.7 105
295 153 105
296 147.8 105
357 186.2 105
358 196.3 105
359 187.8 105
360 191.2 105
422 205.3 105
423 213.9 105
424 220.7 105
425 219.9 105
426 221.4 105
427 214.4 105
428 212 105
429 281.1 105
605 311.1 105
606 322.2 105
607 318.3 105
608 320.5 105
674 346.2 105
675 338.5 105
676 344.1 105
677 343.3 105
678 352.6 105
679 345.3 105
680 346.2 105
741 367 105
742 378.4 105
743 373.3 105
744 384.3 105
745 375 105
746 384.1 105
747 377.8 105
748 384.9 105
810 403.9 105
811 404.6 105
812 398.8 105
813 404 105
814 412.5 105
815 403.7 105
816 404.8 105
873 435.1 105
875 434.4 105
876 444.8 105
877 434.3 105
878 443.9 105
879 439.1 105
880 443.9 105
937 475.1 105
938 471.5 105
939 468 105
941 469.7 105
942 473.3 105
943 466.4 105
944 461.8 105
998 501.8 105
999 517.5 105
1001 500.3 105
1002 511.4 105
1003 505.3 105
1004 501.4 105
1065 533.5 105
1066 534.3 105
1067 528.2 105
1068 528 105
1126 576.7 105
1127 571.7 105
1128 567.7 105
1177 592.1 105
1178 582.8 105
1179 587.2 105
1180 596.7 105
1182 598.4 105
1183 594.1 105
1184 590.4 105
5 0.7 36
6 10.5 36
7 3.3 36
8 8.4 36
53 33.1 36
54 39 36
55 29.6 36
56 27.2 36
109 62.9 36
110 72.7 36
111 64.2 36
112 69.1 36
169 95 36
170 100.3 36
171 91.2 36
172 88.9 36
229 123.6 36
230 135.1 36
231 127.5 36
232 130.3 36
293 158.1 36
294 161.1 36
295 153.3 36
296 149.9 36
357 187.7 36
358 197.9 36
359 189.4 36
360 191.7 36
425 220.4 36
426 222.4 36
427 215 36
428 210.7 36
605 310.9 36
606 321.8 36
607 316.5 36
608 324.1 36
5 0.7 73
6 10.9 73
7 2.5 73
8 8.1 73
53 32.8 73
54 38.2 73
55 30 73
56 27.4 73
109 62.5 73
110 73 73
111 65.2 73
112 68.5 73
169 96.1 73
170 100.8 73
171 91.7 73
172 89.1 73
229 125.4 73
230 135.2 73
231 127.1 73
232 129.8 73
293 157.5 73
294 161.4 73
295 153.3 73
296 149 73
357 187.3 73
358 196.7 73
359 188.2 73
360 190.9 73
424 242.3 73
425 219.5 73
426 221.2 73
427 213.7 73
428 209 73
601 310.2 73
602 352.7 73
603 313.5 73
604 321.6 73
605 312.6 73
606 324.3 73
607 319.7 73
608 323.7 73
610 347.9 73
611 350.2 73
612 353.2 73
673 343.7 73
674 343.6 73
675 341.1 73
676 344.3 73
677 346.4 73
678 354.4 73
679 347.6 73
741 372 73
742 380.2 73
743 376.7 73
744 383 73
745 376.7 73
746 386.1 73
747 384.3 73
748 385.7 73
813 408.1 73
938 462.8 73
939 461.3 73
940 451.9 73
997 494.2 73
999 495.1 73
1000 500.8 73
1061 529.5 73
1063 524.1 73
1064 524 73
1121 562.1 73
1122 562.2 73
1123 561.6 73
1124 567.7 73
5 0.5 55
6 10 55
7 2.3 55
8 8.6 55
53 33.1 55
54 38.6 55
55 30.1 55
56 27.6 55
59 230.6 55
60 225.8 55
109 61.9 55
110 72 55
111 64.8 55
112 68.8 55
169 96.3 55
170 99.1 55
171 92.2 55
172 88.5 55
226 152.9 55
229 123.7 55
230 133.2 55
231 125.2 55
232 129.3 55
289 183.2 55
292 191.3 55
293 157.6 55
294 159.1 55
295 153.3 55
296 149 55
353 181.8 55
355 205.5 55
356 252.9 55
357 188 55
358 197.2 55
359 189.3 55
360 191.5 55
425 220.2 55
426 222.4 55
427 214.2 55
428 209.8 55
605 310.5 55
606 320.8 55
607 315.1 55
608 322.6 55
677 343.2 55
678 356.5 55
679 346.7 55
680 343.7 55
745 376.2 55
746 391.9 55
747 386.6 55
748 383.6 55
813 407.7 55
814 423.7 55
815 416.9 55
5 0.4 82
6 10.5 82
7 3.8 82
8 8.4 82
53 33.5 82
54 38.9 82
55 31.3 82
56 28.3 82
109 61.4 82
110 71.4 82
111 63.9 82
112 66.8 82
167 100.5 82
169 94.3 82
170 98.3 82
171 90.9 82
172 87.6 82
225 129.7 82
227 129.5 82
228 136 82
229 124.5 82
230 135.2 82
231 127.7 82
232 127.4 82
293 157 82
294 159.9 82
295 154 82
296 148.7 82
357 186 82
358 194.7 82
359 190.2 82
360 190.9 82
425 217.6 82
426 223.9 82
427 216.1 82
428 212.2 82
605 310.1 82
606 321.6 82
607 319.2 82
608 316.6 82
677 342.1 82
678 354.7 82
679 345.5 82
680 353.2 82
745 370 82
746 381.8 82
747 387.9 82
748 383.9 82
752 479.6 82
813 438.2 82
814 420.2 82
815 409 82
873 437.7 82
874 436.4 82
875 446.8 82
876 460.9 82
877 439.9 82
878 445.2 82
879 438.5 82
884 521 82
938 468.8 82
939 465.9 82
941 473.9 82
943 477.1 82
997 496.3 82
998 533.3 82
999 496.4 82
1000 505.9 82
1063 525.8 82
1064 528.5 82
1117 578.4 82
1118 570 82
1119 572.1 82
1120 573.9 82
1127 601.7 82
1129 619.9 82
1130 583.5 82
1131 590.5 82
1132 592.5 82
1173 590 82
1185 641.6 82
1188 614.4 82
5 0.7 76
6 9.5 76
7 3.7 76
8 8.6 76
53 32.6 76
54 38.4 76
55 29.7 76
56 27.8 76
109 60.9 76
110 71 76
111 65.5 76
112 68.5 76
169 93.9 76
170 101 76
171 91.5 76
172 88.3 76
229 125 76
230 134.3 76
231 126 76
232 129.2 76
293 157.7 76
294 160.2 76
295 151.8 76
296 150 76
357 184.6 76
358 197.6 76
359 187.6 76
360 190.4 76
425 220.7 76
426 220.3 76
427 215.5 76
428 209.5 76
605 310.5 76
606 321.6 76
607 316.4 76
608 321.2 76
677 342.2 76
678 352.9 76
679 344 76
680 340.5 76
743 383.5 76
745 371.9 76
746 384.3 76
747 377.9 76
748 383.5 76
811 402.2 76
813 403.9 76
814 414.2 76
815 405.7 76
816 400.5 76
873 460.8 76
877 432.5 76
878 444.5 76
879 439.8 76
880 442 76
938 467.7 76
939 474.8 76
941 467.2 76
942 471.7 76
943 465.3 76
944 462.3 76
997 499 76
999 502.7 76
1001 496.1 76
1002 513.1 76
1003 504.7 76
1004 510.2 76
1061 557.4 76
1063 527.3 76
1064 528.2 76
1065 545 76
1067 540.8 76
1117 558 76
1118 565.4 76
1119 557.1 76
1120 554.5 76
5 0.5 77
6 10 77
7 3.4 77
8 8.3 77
53 33.1 77
54 38.6 77
55 30.5 77
56 28.2 77
109 62.7 77
110 72.9 77
111 65.2 77
112 69.8 77
169 92.4 77
170 97.9 77
171 90.8 77
172 87.9 77
225 132.3 77
226 141.1 77
227 137.6 77
229 124.4 77
230 134.3 77
231 125 77
232 127.9 77
293 154.6 77
294 160 77
295 153.2 77
296 149.2 77
357 185.7 77
358 197.8 77
359 190.1 77
360 190.3 77
425 220.1 77
426 219.2 77
427 214.5 77
428 207.7 77
605 312.4 77
606 319.8 77
607 317.2 77
608 319.1 77
609 396.6 77
675 346.9 77
677 344.1 77
678 350.6 77
679 344.7 77
680 339.2 77
745 374.4 77
746 384.5 77
747 379 77
748 382.7 77
813 403.5 77
814 413.9 77
815 406.1 77
816 402.5 77
877 436.2 77
878 447.6 77
879 442.2 77
880 443.6 77
937 471.1 77
938 474 77
939 468 77
941 465 77
942 474.5 77
943 469.9 77
944 463.5 77
996 509.1 77
998 513.2 77
999 502.1 77
1000 510.9 77
1001 499.4 77
1002 513.6 77
1003 504.4 77
1004 504.6 77
1065 539 77
1066 542.4 77
1067 535.7 77
1068 534.4 77
1188 625.7 77
5 0.1 92
6 10.1 92
7 1.8 92
8 9 92
53 32.5 92
54 37.1 92
55 30 92
56 27 92
109 61 92
110 73 92
111 63.7 92
112 68.2 92
169 95.9 92
170 100.1 92
171 92.2 92
172 87.9 92
225 127.3 92
227 138.9 92
229 123.4 92
230 135 92
231 126.2 92
232 128.2 92
234 181.4 92
235 185.7 92
289 157.7 92
293 155.6 92
294 158.7 92
295 151.9 92
296 147.6 92
297 203.4 92
299 197.7 92
300 196.5 92
353 182.9 92
355 188.5 92
357 185 92
358 197 92
359 188.5 92
360 187.6 92
425 218.4 92
426 223.2 92
427 214.2 92
428 212.1 92
605 311.3 92
606 320.7 92
607 317.6 92
608 320.7 92
674 343.3 92
675 360.9 92
676 342 92
677 343.4 92
678 353.4 92
679 344.3 92
680 343.4 92
741 396.6 92
743 377.8 92
744 385.1 92
745 371.4 92
746 386.3 92
747 376.3 92
748 380.9 92
810 403.6 92
811 401.3 92
812 425.7 92
813 409.2 92
814 410.7 92
815 405.2 92
816 397.8 92
873 440.5 92
875 435.7 92
876 442.5 92
877 443.2 92
878 452.6 92
879 446.9 92
880 446 92
938 466.8 92
939 467.4 92
941 476.7 92
942 476.1 92
943 472 92
944 470.4 92
1001 573.8 92
1002 516.3 92
1003 511.6 92
1004 509.5 92
1066 541.3 92
1067 539.5 92
1068 533.7 92
1127 577.4 92
1128 573.3 92
1182 607.1 92
1183 605.1 92
1184 599.8 92
5 0.3 85
6 10.5 85
7 3.2 85
8 8.1 85
53 33.5 85
54 39.6 85
55 30.1 85
56 27.5 85
109 62 85
110 72.8 85
111 65.2 85
112 67.7 85
169 94.9 85
170 98.9 85
171 90.1 85
172 87.6 85
229 123.6 85
230 136.2 85
231 127.8 85
232 129.2 85
293 158.4 85
294 161.3 85
295 154.1 85
296 150.3 85
357 188.3 85
358 198.8 85
359 190.5 85
360 191.3 85
425 220.2 85
426 220.7 85
427 214.8 85
428 211.4 85
605 309.6 85
606 321 85
607 315.6 85
608 319.5 85
677 341.6 85
678 348.8 85
679 341.9 85
680 338.3 85
741 392.1 85
744 396.8 85
745 371.8 85
746 383.1 85
747 376.7 85
748 383.8 85
813 406.2 85
814 414.1 85
815 404.9 85
816 401.9 85
877 435.1 85
878 445.4 85
879 439.4 85
880 444 85
938 477.8 85
939 480.7 85
941 467.9 85
942 473 85
943 464.4 85
944 462.1 85
1001 496 85
1002 507.5 85
1003 503.4 85
1004 505.6 85
1005 539.6 85
1006 525.8 85
1007 530.9 85
1008 530.5 85
1065 528.8 85
1066 538.2 85
1067 528.4 85
1068 521.1 85
1069 562.9 85
1071 555.6 85
1072 551.6 85
1125 557.5 85
1126 570.3 85
1127 561.8 85
1128 565.7 85
1129 584.6 85
1131 584.2 85
1181 591.5 85
1182 597.6 85
1183 591.1 85
1184 586.1 85
5 0.8 94
6 10.8 94
7 4.3 94
8 7.9 94
53 32.4 94
54 39.4 94
55 30.3 94
56 28 94
107 67.2 94
109 61.7 94
110 72.8 94
111 64.9 94
112 67.3 94
165 98.8 94
169 98 94
170 100.3 94
171 91.8 94
172 88.8 94
227 141.2 94
228 138.5 94
229 126.3 94
230 136.5 94
231 127.8 94
232 131.7 94
293 161.3 94
294 161.2 94
295 154.2 94
296 151.8 94
353 215.2 94
357 187 94
358 198.8 94
359 190.3 94
360 192.3 94
362 227.2 94
425 221.3 94
426 222.2 94
427 216.8 94
428 211.6 94
605 312.7 94
606 322.9 94
607 317.8 94
608 319.3 94
677 343.5 94
678 351.3 94
679 345.8 94
680 338 94
745 374.8 94
746 384.4 94
747 379.4 94
748 381.4 94
810 415.9 94
811 421.1 94
813 405.4 94
814 413.3 94
815 405.7 94
816 401.6 94
873 444.3 94
875 463.4 94
876 449.4 94
877 434.7 94
878 444.6 94
879 438.3 94
880 443 94
937 468.3 94
938 472.4 94
939 466.7 94
940 473.9 94
941 466.6 94
942 474.4 94
943 465.2 94
944 466.2 94
997 499.1 94
999 505.4 94
1001 496.6 94
1002 507.4 94
1003 504.1 94
1004 504.8 94
1061 527.8 94
1062 568.2 94
1063 525.3 94
1065 530.3 94
1066 541.1 94
1067 530.3 94
1121 554.7 94
1122 552.8 94
1123 557.1 94
1124 563.4 94
1125 559.2 94
1126 569.9 94
1127 564.7 94
1181 591.7 94
1182 601.8 94
1183 591.4 94
1184 591.1 94
5 0.6 104
6 10 104
7 3 104
8 7 104
51 104.6 104
53 30.7 104
54 36.8 104
55 28.7 104
56 26.6 104
109 61.6 104
110 71.5 104
111 63.9 104
112 65.9 104
113 118.6 104
114 104.5 104
115 110.5 104
116 115.4 104
166 126.3 104
169 95.8 104
170 97.8 104
171 90.5 104
172 87.6 104
225 137.3 104
229 122.8 104
230 134.1 104
231 126.2 104
232 126 104
293 158.5 104
294 162.3 104
295 153.7 104
296 148.5 104
357 184.8 104
358 197.9 104
359 187.5 104
360 192.1 104
422 205.7 104
423 216.2 104
425 218.4 104
426 222.5 104
427 214.2 104
428 212 104
429 277.6 104
605 311.7 104
606 321.8 104
607 317.2 104
608 320.7 104
673 350.6 104
674 345 104
675 338.3 104
676 342.1 104
677 341.6 104
678 348.8 104
679 344.3 104
680 345.4 104
741 368.6 104
742 378.4 104
743 375.3 104
744 381.5 104
745 373.4 104
746 383 104
747 379.8 104
748 382.1 104
809 435.6 104
810 403.4 104
811 404.1 104
812 395.4 104
813 403.7 104
814 411.5 104
815 404.1 104
816 403.7 104
873 432.7 104
875 436.6 104
876 440.5 104
877 434.4 104
878 445.1 104
879 439.1 104
880 442.5 104
938 470.6 104
939 468.7 104
941 470.7 104
942 472.1 104
943 466.5 104
944 461.5 104
998 511.1 104
999 505.1 104
1001 499.4 104
1002 510 104
1003 506.6 104
1004 503.3 104
1061 537.2 104
1065 532.9 104
1066 535.1 104
1067 531.2 104
1068 525.7 104
1126 575.8 104
1127 570.6 104
1128 564.5 104
1177 591.5 104
1178 584.7 104
1179 590.4 104
1180 597.5 104
1182 597.5 104
1183 595.5 104
1184 591 104
5 0.2 36
6 10.5 36
7 3.5 36
8 7.8 36
53 33 36
54 38.6 36
55 29.8 36
56 27.7 36
109 62.9 36
110 73.3 36
111 64.8 36
112 69.4 36
169 95.9 36
170 100.2 36
171 91.5 36
172 88.9 36
229 123.8 36
230 134.7 36
231 126.9 36
232 130.1 36
293 158.5 36
294 161.9 36
295 153.1 36
296 149.9 36
357 188 36
358 198.5 36
359 189.7 36
360 191.3 36
425 221.6 36
426 222.5 36
427 214.1 36
428 210.5 36
605 311 36
606 322 36
607 317 36
608 324.1 36
5 0.9 72
6 10.8 72
7 2.8 72
8 8.5 72
53 33 72
54 38.8 72
55 29.6 72
56 27.6 72
109 62.1 72
110 72.8 72
111 65.2 72
112 69.4 72
169 95.7 72
170 100 72
171 91.8 72
172 88.7 72
229 125.4 72
230 135.1 72
231 127.1 72
232 129.5 72
293 158.6 72
294 161.2 72
295 153.1 72
296 148.9 72
357 187.7 72
358 197.6 72
359 188.4 72
360 191.5 72
424 244.5 72
425 219.9 72
426 220.6 72
427 213.8 72
428 209 72
601 306.4 72
603 312 72
604 319 72
605 312.7 72
606 324.4 72
607 319.4 72
608 322 72
610 344.9 72
611 349.4 72
612 353.3 72
673 346.2 72
674 343.3 72
675 341.8 72
677 347.1 72
678 353 72
679 346.7 72
741 372.6 72
742 374.5 72
743 375.7 72
744 380.3 72
745 375 72
746 388 72
747 382.5 72
748 383.3 72
813 410.3 72
815 425.6 72
938 463.3 72
939 459.8 72
940 451.2 72
997 492.3 72
999 494.1 72
1000 502 72
1061 527.9 72
1063 521.5 72
1064 521.7 72
1121 562.6 72
1123 563.1 72
1124 568.7 72
1177 599.8 72
5 0.6 54
6 10.1 54
7 2.8 54
8 8.3 54
53 33.7 54
54 39.4 54
55 30.3 54
56 27.5 54
59 230.4 54
60 224.1 54
109 62.5 54
110 72.6 54
111 65.4 54
112 69.1 54
169 95.1 54
170 99.1 54
171 92.5 54
172 89.2 54
229 124.1 54
230 133.3 54
231 125.5 54
232 128.8 54
289 182 54
292 191.2 54
293 156.6 54
294 158.8 54
295 153.1 54
296 147.8 54
353 182.7 54
355 210.4 54
357 188 54
358 198.6 54
359 188.9 54
360 191.2 54
425 219.8 54
426 221.5 54
427 214.5 54
428 210.3 54
605 309.6 54
606 320.5 54
607 315.4 54
608 321.1 54
677 342.3 54
678 354.4 54
679 347.2 54
680 344.1 54
745 376.6 54
746 392.9 54
747 383.8 54
748 382.4 54
813 408.3 54
814 421.6 54
815 414.2 54
880 456 54
5 0.9 84
6 10.4 84
7 3.5 84
8 8.7 84
53 33.7 84
54 40.1 84
55 30.9 84
56 28.7 84
109 61.7 84
110 71.2 84
111 64.3 84
112 66.8 84
169 93.7 84
170 98.5 84
171 91 84
172 87.1 84
225 129.7 84
227 127.7 84
228 136.6 84
229 125.1 84
230 135.9 84
231 127.7 84
232 127.3 84
293 157.8 84
294 159.5 84
295 153.6 84
296 148.4 84
357 186.8 84
358 194.9 84
359 189.4 84
360 190.8 84
425 218.1 84
426 223.9 84
427 216.3 84
428 211.2 84
605 310.8 84
606 321.5 84
607 318.5 84
608 318.5 84
674 346.1 84
677 341.3 84
678 352.5 84
679 345.9 84
680 351.4 84
745 371.2 84
746 383.2 84
747 389.7 84
748 384.7 84
813 439.8 84
814 420.2 84
815 409.6 84
816 447.6 84
873 433 84
874 439.1 84
875 446 84
876 455.8 84
877 440.2 84
878 445.6 84
879 439 84
880 462.4 84
884 522.6 84
938 471.3 84
939 464.7 84
940 458.7 84
941 478.1 84
942 500.8 84
943 474.9 84
997 497 84
999 499.8 84
1000 504.1 84
1062 551.3 84
1063 527.4 84
1064 527.7 84
1117 571.3 84
1118 572.8 84
1119 572.9 84
1120 571.8 84
1125 595.7 84
1129 620.4 84
1130 580.1 84
1131 588.2 84
1132 593.8 84
1185 642.3 84
1188 617.9 84
